Game of Life (CPU Implementation)
Starting Simulation
Health Status at Size 2 after 10 Generations
0  0  
0  0  
Elapsed Time: 36ms

Health Status at Size 4 after 10 Generations
1  1  1  0  
1  0  0  1  
1  0  0  1  
0  1  1  1  
Elapsed Time: 51ms

Health Status at Size 8 after 10 Generations
0  0  0  0  1  1  0  0  
0  0  1  0  0  0  1  0  
0  0  1  0  0  1  0  0  
0  0  0  1  1  0  0  0  
0  0  0  0  0  0  0  0  
0  0  0  0  0  1  0  0  
0  0  0  0  0  1  0  0  
0  0  0  0  0  1  0  0  
Elapsed Time: 135ms

Health Status at Size 16 after 10 Generations
0  0  0  0  0  1  0  0  0  0  1  0  0  1  0  0  
0  0  0  1  1  0  1  0  0  1  0  0  0  0  0  0  
0  0  1  0  0  0  0  0  0  0  1  0  0  1  0  0  
1  0  0  0  0  0  0  1  0  0  0  1  1  0  0  0  
1  1  0  1  0  0  1  0  1  0  0  0  0  0  0  0  
1  0  0  0  1  1  0  1  1  1  0  0  0  0  0  0  
0  1  1  1  1  0  0  0  1  1  0  0  0  0  0  0  
0  0  0  1  0  0  0  0  0  0  0  0  0  0  0  0  
0  0  0  0  0  0  0  0  0  0  0  0  0  0  0  0  
0  0  0  0  0  0  0  0  0  0  0  0  0  0  0  0  
0  0  0  0  0  0  0  0  0  0  0  0  0  0  0  0  
0  0  0  0  0  0  0  0  0  0  0  0  0  0  0  0  
0  0  0  0  0  0  0  0  0  0  0  0  0  0  0  0  
1  1  0  0  0  0  0  0  0  0  0  0  0  0  0  0  
1  1  0  0  0  0  0  0  0  0  0  0  0  0  0  0  
0  0  0  0  0  0  0  0  0  0  0  0  0  0  0  0  
Elapsed Time: 445ms

Health Status at Size 32 after 10 Generations
0  0  0  0  0  0  0  0  0  0  0  0  0  0  0  0  1  0  0  0  0  0  0  0  0  0  0  0  0  0  0  0  
0  0  0  0  0  0  0  0  0  1  0  0  0  0  0  0  1  0  0  0  1  1  0  0  0  0  0  0  0  0  0  0  
0  0  0  0  0  0  0  0  1  0  1  0  0  0  0  1  0  0  0  0  0  0  0  0  0  0  0  0  0  0  0  0  
1  1  0  0  0  0  0  0  0  0  1  0  1  1  0  0  1  1  0  0  1  0  1  0  0  0  0  0  0  0  0  0  
0  0  1  0  0  0  0  0  0  0  0  1  1  1  0  0  0  0  0  0  1  0  1  1  0  1  0  0  0  0  0  0  
0  0  0  0  0  0  0  0  0  1  1  0  0  0  0  0  0  0  0  0  1  0  0  0  0  0  0  1  0  0  0  0  
1  0  0  0  0  0  0  0  0  0  1  1  0  0  0  0  0  0  0  0  0  0  0  1  0  0  0  0  1  0  0  0  
1  1  0  0  0  0  0  0  0  0  0  1  0  0  0  0  0  1  1  0  0  0  1  0  0  0  0  0  1  0  0  0  
1  0  1  0  0  0  1  0  0  0  0  0  0  0  1  1  0  1  1  0  0  0  0  1  0  0  0  0  1  0  0  0  
0  1  1  1  0  0  1  0  0  0  1  0  0  1  1  0  0  0  0  0  0  0  0  1  0  0  0  0  0  0  0  0  
0  1  1  0  0  0  1  0  0  0  0  0  1  1  0  0  0  0  0  0  0  0  0  0  0  1  1  0  0  0  0  0  
0  0  0  0  0  0  1  1  0  0  0  0  0  1  0  0  0  0  0  0  0  0  0  0  0  1  0  1  0  1  0  1  
0  0  0  0  0  0  0  1  0  0  0  0  1  0  0  0  0  0  0  0  0  0  1  1  0  0  1  0  0  1  0  0  
0  0  0  0  0  0  0  0  0  0  1  0  0  0  0  0  0  0  0  0  1  0  1  1  0  0  1  0  1  1  0  0  
0  0  0  0  0  0  0  0  0  0  0  0  0  0  0  0  0  0  0  1  1  0  0  0  0  0  0  1  0  0  0  0  
0  0  0  0  0  0  0  0  0  0  0  0  0  0  0  0  0  0  0  1  1  0  0  1  0  0  0  0  0  0  0  0  
0  1  1  0  1  0  1  1  0  0  0  0  0  0  0  0  0  0  0  1  1  0  1  0  0  0  0  0  0  0  0  0  
0  1  1  0  0  0  1  0  0  0  0  0  0  0  0  0  0  0  0  0  1  1  0  0  0  0  0  0  0  0  1  1  
1  0  1  0  0  0  1  0  0  0  0  0  0  1  1  0  0  0  0  1  1  1  0  0  0  0  0  0  0  1  1  1  
1  1  0  0  1  1  0  0  1  0  0  0  1  0  0  1  0  0  0  1  1  0  0  0  0  0  0  1  0  0  0  0  
0  1  0  1  0  0  0  1  0  1  0  0  1  0  0  1  1  0  0  1  1  0  0  0  0  0  0  1  1  0  0  0  
0  0  0  1  0  0  1  0  0  0  1  0  0  1  0  1  0  0  0  0  1  0  0  0  0  0  0  1  0  0  0  0  
0  0  0  0  0  0  0  1  0  1  0  0  0  1  1  1  1  0  0  0  0  1  0  0  0  0  0  0  0  0  0  0  
0  0  0  0  0  0  0  0  1  0  0  0  1  0  0  0  0  0  0  1  1  0  0  0  0  0  0  0  0  0  0  0  
1  1  0  0  0  0  0  0  0  0  0  0  1  1  1  0  0  0  0  0  0  0  0  0  0  0  0  0  0  0  0  0  
1  1  0  0  0  0  0  0  0  0  0  0  1  0  0  0  1  0  0  0  0  0  0  0  0  0  0  0  0  0  0  0  
0  0  0  0  0  0  0  0  0  0  0  0  0  1  1  0  1  0  0  0  0  0  0  0  0  0  1  1  0  0  0  0  
0  0  0  0  0  0  0  0  0  0  0  0  1  1  1  0  1  0  0  0  0  0  0  0  0  0  1  0  0  0  0  0  
0  0  1  0  0  0  0  0  0  0  1  0  0  0  0  0  0  0  0  1  1  1  0  0  0  0  0  1  1  0  0  0  
0  1  1  0  1  0  0  0  0  1  0  0  1  0  0  0  1  1  0  1  1  0  0  0  0  0  0  0  0  1  0  0  
0  1  1  0  0  1  0  0  0  0  1  0  1  0  0  0  1  1  0  1  0  1  0  1  1  1  0  0  0  1  0  0  
0  0  0  1  0  1  0  0  0  0  0  0  0  0  0  0  0  0  0  0  0  0  0  0  0  0  1  0  0  1  0  0  
Elapsed Time: 1680ms

Ending Simulation