Collaboration:5
toMeet:17,-1,-1,-1,17, Type:1, Priority:9999, Length:2, ID:0, Day:6, project 5
toMeet:15,-1,15,-1,15, Type:1, Priority:9999, Length:2, ID:1, Day:0, project 1
toMeet:3,3,3,3,3, Type:1, Priority:9999, Length:1, ID:2, Day:1, project 2
toMeet:4,-1,4,4,4, Type:1, Priority:9999, Length:2, ID:3, Day:5, project 4
toMeet:17,-1,-1,-1,-1, Type:1, Priority:9999, Length:1, ID:4, Day:4, project 3

Production:999
Hours:9,1,-1,-1,-1, Type:0, Priority:67, totalHours:10, ID:5, project:1
Hours:6,-1,9,2,4, Type:0, Priority:46, totalHours:21, ID:6, project:1
Hours:2,7,4,-1,9, Type:0, Priority:55, totalHours:22, ID:7, project:1
Hours:-1,8,6,2,7, Type:0, Priority:35, totalHours:23, ID:8, project:1
Hours:-1,-1,7,7,3, Type:0, Priority:89, totalHours:17, ID:9, project:1
Hours:2,-1,-1,4,3, Type:0, Priority:66, totalHours:9, ID:10, project:1
Hours:-1,2,-1,-1,6, Type:0, Priority:37, totalHours:8, ID:11, project:1
Hours:7,4,1,-1,5, Type:0, Priority:13, totalHours:17, ID:12, project:1
Hours:-1,7,7,2,7, Type:0, Priority:38, totalHours:23, ID:13, project:1
Hours:9,3,8,6,-1, Type:0, Priority:6, totalHours:26, ID:14, project:1
Hours:-1,7,3,-1,-1, Type:0, Priority:13, totalHours:10, ID:15, project:1
Hours:6,-1,-1,-1,8, Type:0, Priority:53, totalHours:14, ID:16, project:1
Hours:-1,-1,9,4,8, Type:0, Priority:65, totalHours:21, ID:17, project:1
Hours:-1,1,8,5,4, Type:0, Priority:95, totalHours:18, ID:18, project:1
Hours:5,-1,1,6,2, Type:0, Priority:17, totalHours:14, ID:19, project:1
Hours:-1,1,-1,-1,9, Type:0, Priority:99, totalHours:10, ID:20, project:1
Hours:5,8,7,-1,7, Type:0, Priority:41, totalHours:27, ID:21, project:1
Hours:1,7,-1,1,5, Type:0, Priority:37, totalHours:14, ID:22, project:1
Hours:-1,2,-1,1,4, Type:0, Priority:7, totalHours:7, ID:23, project:1
Hours:-1,1,4,-1,2, Type:0, Priority:36, totalHours:7, ID:24, project:1
Hours:-1,-1,-1,6,-1, Type:0, Priority:20, totalHours:6, ID:25, project:1
Hours:2,-1,4,1,7, Type:0, Priority:52, totalHours:14, ID:26, project:1
Hours:-1,4,-1,-1,-1, Type:0, Priority:5, totalHours:4, ID:27, project:1
Hours:1,-1,-1,4,-1, Type:0, Priority:75, totalHours:5, ID:28, project:1
Hours:2,6,9,9,8, Type:0, Priority:32, totalHours:34, ID:29, project:1
Hours:9,2,9,5,7, Type:0, Priority:49, totalHours:32, ID:30, project:1
Hours:-1,6,-1,-1,-1, Type:0, Priority:68, totalHours:6, ID:31, project:1
Hours:-1,1,4,1,8, Type:0, Priority:77, totalHours:14, ID:32, project:1
Hours:7,5,8,5,3, Type:0, Priority:20, totalHours:28, ID:33, project:1
Hours:8,-1,4,-1,6, Type:0, Priority:43, totalHours:18, ID:34, project:1
Hours:5,-1,-1,-1,6, Type:0, Priority:9, totalHours:11, ID:35, project:1
Hours:2,3,-1,7,8, Type:0, Priority:97, totalHours:20, ID:36, project:1
Hours:3,-1,9,-1,3, Type:0, Priority:81, totalHours:15, ID:37, project:1
Hours:-1,6,-1,-1,5, Type:0, Priority:29, totalHours:11, ID:38, project:1
Hours:1,8,6,5,7, Type:0, Priority:92, totalHours:27, ID:39, project:1
Hours:-1,-1,5,2,3, Type:0, Priority:77, totalHours:10, ID:40, project:1
Hours:3,1,4,3,9, Type:0, Priority:98, totalHours:20, ID:41, project:1
Hours:-1,5,-1,-1,7, Type:0, Priority:39, totalHours:12, ID:42, project:1
Hours:-1,3,3,6,2, Type:0, Priority:56, totalHours:14, ID:43, project:1
Hours:-1,6,-1,-1,-1, Type:0, Priority:93, totalHours:6, ID:44, project:1
Hours:8,-1,5,-1,3, Type:0, Priority:98, totalHours:16, ID:45, project:1
Hours:1,-1,-1,9,1, Type:0, Priority:29, totalHours:11, ID:46, project:1
Hours:-1,6,9,-1,-1, Type:0, Priority:7, totalHours:15, ID:47, project:1
Hours:1,3,5,-1,2, Type:0, Priority:97, totalHours:11, ID:48, project:1
Hours:-1,4,-1,-1,4, Type:0, Priority:84, totalHours:8, ID:49, project:1
Hours:-1,-1,1,-1,1, Type:0, Priority:52, totalHours:2, ID:50, project:1
Hours:8,-1,6,-1,2, Type:0, Priority:51, totalHours:16, ID:51, project:1
Hours:-1,-1,-1,-1,-1, Type:0, Priority:15, totalHours:0, ID:52, project:1
Hours:8,8,4,3,-1, Type:0, Priority:49, totalHours:23, ID:53, project:1
Hours:3,9,5,9,-1, Type:0, Priority:16, totalHours:26, ID:54, project:1
Hours:3,-1,-1,4,5, Type:0, Priority:35, totalHours:12, ID:55, project:1
Hours:-1,7,1,1,-1, Type:0, Priority:85, totalHours:9, ID:56, project:1
Hours:-1,-1,5,-1,-1, Type:0, Priority:78, totalHours:5, ID:57, project:1
Hours:2,5,-1,7,-1, Type:0, Priority:94, totalHours:14, ID:58, project:1
Hours:5,3,3,3,4, Type:0, Priority:80, totalHours:18, ID:59, project:1
Hours:-1,-1,1,-1,1, Type:0, Priority:14, totalHours:2, ID:60, project:1
Hours:6,8,2,-1,6, Type:0, Priority:36, totalHours:22, ID:61, project:1
Hours:2,-1,9,3,3, Type:0, Priority:95, totalHours:17, ID:62, project:1
Hours:6,-1,-1,7,3, Type:0, Priority:90, totalHours:16, ID:63, project:1
Hours:9,1,-1,8,8, Type:0, Priority:10, totalHours:26, ID:64, project:1
Hours:-1,1,5,4,-1, Type:0, Priority:33, totalHours:10, ID:65, project:1
Hours:9,2,2,9,-1, Type:0, Priority:77, totalHours:22, ID:66, project:1
Hours:-1,-1,1,8,4, Type:0, Priority:77, totalHours:13, ID:67, project:1
Hours:-1,-1,1,7,4, Type:0, Priority:96, totalHours:12, ID:68, project:1
Hours:1,-1,8,-1,9, Type:0, Priority:70, totalHours:18, ID:69, project:1
Hours:8,2,8,7,-1, Type:0, Priority:38, totalHours:25, ID:70, project:1
Hours:8,8,-1,6,8, Type:0, Priority:33, totalHours:30, ID:71, project:1
Hours:6,9,-1,7,5, Type:0, Priority:71, totalHours:27, ID:72, project:1
Hours:-1,4,-1,1,6, Type:0, Priority:61, totalHours:11, ID:73, project:1
Hours:-1,8,3,-1,2, Type:0, Priority:50, totalHours:13, ID:74, project:1
Hours:9,-1,-1,5,9, Type:0, Priority:8, totalHours:23, ID:75, project:1
Hours:1,7,-1,8,9, Type:0, Priority:5, totalHours:25, ID:76, project:1
Hours:5,-1,-1,1,2, Type:0, Priority:49, totalHours:8, ID:77, project:1
Hours:-1,5,9,7,-1, Type:0, Priority:58, totalHours:21, ID:78, project:1
Hours:6,-1,7,4,1, Type:0, Priority:93, totalHours:18, ID:79, project:1
Hours:7,5,9,8,-1, Type:0, Priority:25, totalHours:29, ID:80, project:1
Hours:1,8,9,-1,6, Type:0, Priority:68, totalHours:24, ID:81, project:1
Hours:1,-1,5,-1,9, Type:0, Priority:22, totalHours:15, ID:82, project:1
Hours:8,8,7,1,-1, Type:0, Priority:42, totalHours:24, ID:83, project:1
Hours:2,6,-1,8,1, Type:0, Priority:78, totalHours:17, ID:84, project:1
Hours:-1,5,2,6,-1, Type:0, Priority:28, totalHours:13, ID:85, project:1
Hours:2,-1,3,-1,-1, Type:0, Priority:25, totalHours:5, ID:86, project:1
Hours:1,-1,7,-1,-1, Type:0, Priority:25, totalHours:8, ID:87, project:1
Hours:9,2,1,1,4, Type:0, Priority:49, totalHours:17, ID:88, project:1
Hours:-1,-1,-1,-1,4, Type:0, Priority:98, totalHours:4, ID:89, project:1
Hours:-1,9,-1,1,6, Type:0, Priority:30, totalHours:16, ID:90, project:1
Hours:-1,-1,-1,3,6, Type:0, Priority:6, totalHours:9, ID:91, project:1
Hours:-1,-1,1,5,7, Type:0, Priority:4, totalHours:13, ID:92, project:1
Hours:7,6,7,-1,4, Type:0, Priority:19, totalHours:24, ID:93, project:1
Hours:1,-1,7,-1,-1, Type:0, Priority:73, totalHours:8, ID:94, project:1
Hours:7,3,1,5,7, Type:0, Priority:37, totalHours:23, ID:95, project:1
Hours:9,8,-1,5,7, Type:0, Priority:17, totalHours:29, ID:96, project:1
Hours:3,8,7,3,-1, Type:0, Priority:47, totalHours:21, ID:97, project:1
Hours:7,5,8,5,6, Type:0, Priority:94, totalHours:31, ID:98, project:1
Hours:4,7,-1,2,3, Type:0, Priority:76, totalHours:16, ID:99, project:1
Hours:-1,8,-1,5,1, Type:0, Priority:18, totalHours:14, ID:100, project:1
Hours:2,-1,-1,-1,2, Type:0, Priority:70, totalHours:4, ID:101, project:2
Hours:3,7,-1,-1,7, Type:0, Priority:7, totalHours:17, ID:102, project:2
Hours:-1,-1,2,-1,4, Type:0, Priority:12, totalHours:6, ID:103, project:2
Hours:2,-1,9,3,1, Type:0, Priority:53, totalHours:15, ID:104, project:2
Hours:6,9,2,2,6, Type:0, Priority:0, totalHours:25, ID:105, project:2
Hours:7,-1,9,4,-1, Type:0, Priority:32, totalHours:20, ID:106, project:2
Hours:-1,1,-1,-1,7, Type:0, Priority:6, totalHours:8, ID:107, project:2
Hours:5,-1,-1,5,-1, Type:0, Priority:81, totalHours:10, ID:108, project:2
Hours:-1,7,9,5,-1, Type:0, Priority:8, totalHours:21, ID:109, project:2
Hours:3,4,-1,1,1, Type:0, Priority:4, totalHours:9, ID:110, project:2
Hours:-1,-1,3,-1,-1, Type:0, Priority:47, totalHours:3, ID:111, project:2
Hours:-1,4,2,1,-1, Type:0, Priority:66, totalHours:7, ID:112, project:2
Hours:6,1,-1,-1,-1, Type:0, Priority:34, totalHours:7, ID:113, project:2
Hours:4,4,9,-1,-1, Type:0, Priority:56, totalHours:17, ID:114, project:2
Hours:2,6,2,9,1, Type:0, Priority:37, totalHours:20, ID:115, project:2
Hours:7,-1,1,-1,1, Type:0, Priority:89, totalHours:9, ID:116, project:2
Hours:-1,8,1,2,-1, Type:0, Priority:25, totalHours:11, ID:117, project:2
Hours:-1,6,4,1,-1, Type:0, Priority:24, totalHours:11, ID:118, project:2
Hours:-1,1,6,-1,8, Type:0, Priority:79, totalHours:15, ID:119, project:2
Hours:9,-1,-1,5,-1, Type:0, Priority:78, totalHours:14, ID:120, project:2
Hours:-1,8,2,6,8, Type:0, Priority:87, totalHours:24, ID:121, project:2
Hours:6,5,2,-1,7, Type:0, Priority:84, totalHours:20, ID:122, project:2
Hours:4,2,-1,-1,-1, Type:0, Priority:94, totalHours:6, ID:123, project:2
Hours:5,4,-1,6,2, Type:0, Priority:42, totalHours:17, ID:124, project:2
Hours:9,8,8,-1,9, Type:0, Priority:64, totalHours:34, ID:125, project:2
Hours:5,2,2,6,1, Type:0, Priority:31, totalHours:16, ID:126, project:2
Hours:-1,-1,-1,3,2, Type:0, Priority:79, totalHours:5, ID:127, project:2
Hours:3,-1,9,-1,-1, Type:0, Priority:42, totalHours:12, ID:128, project:2
Hours:-1,4,4,8,2, Type:0, Priority:41, totalHours:18, ID:129, project:2
Hours:6,3,7,5,-1, Type:0, Priority:22, totalHours:21, ID:130, project:2
Hours:3,5,9,1,1, Type:0, Priority:43, totalHours:19, ID:131, project:2
Hours:7,7,5,1,2, Type:0, Priority:0, totalHours:22, ID:132, project:2
Hours:5,-1,2,4,-1, Type:0, Priority:24, totalHours:11, ID:133, project:2
Hours:-1,-1,1,5,-1, Type:0, Priority:77, totalHours:6, ID:134, project:2
Hours:1,2,5,1,-1, Type:0, Priority:67, totalHours:9, ID:135, project:2
Hours:4,-1,-1,-1,1, Type:0, Priority:96, totalHours:5, ID:136, project:2
Hours:1,-1,-1,9,2, Type:0, Priority:26, totalHours:12, ID:137, project:2
Hours:5,3,-1,2,8, Type:0, Priority:81, totalHours:18, ID:138, project:2
Hours:8,5,5,3,2, Type:0, Priority:38, totalHours:23, ID:139, project:2
Hours:6,4,-1,1,8, Type:0, Priority:27, totalHours:19, ID:140, project:2
Hours:-1,4,-1,7,3, Type:0, Priority:39, totalHours:14, ID:141, project:2
Hours:6,4,1,-1,1, Type:0, Priority:9, totalHours:12, ID:142, project:2
Hours:2,8,7,-1,7, Type:0, Priority:79, totalHours:24, ID:143, project:2
Hours:3,1,-1,6,7, Type:0, Priority:46, totalHours:17, ID:144, project:2
Hours:9,4,1,-1,-1, Type:0, Priority:38, totalHours:14, ID:145, project:2
Hours:9,-1,1,-1,5, Type:0, Priority:85, totalHours:15, ID:146, project:2
Hours:9,9,3,-1,4, Type:0, Priority:60, totalHours:25, ID:147, project:2
Hours:1,-1,7,-1,8, Type:0, Priority:9, totalHours:16, ID:148, project:2
Hours:-1,-1,5,1,-1, Type:0, Priority:16, totalHours:6, ID:149, project:2
Hours:-1,-1,6,-1,-1, Type:0, Priority:82, totalHours:6, ID:150, project:2
Hours:-1,4,2,4,4, Type:0, Priority:80, totalHours:14, ID:151, project:2
Hours:9,4,9,9,-1, Type:0, Priority:86, totalHours:31, ID:152, project:2
Hours:4,-1,3,8,5, Type:0, Priority:47, totalHours:20, ID:153, project:2
Hours:-1,1,-1,9,7, Type:0, Priority:64, totalHours:17, ID:154, project:2
Hours:1,7,9,-1,-1, Type:0, Priority:86, totalHours:17, ID:155, project:2
Hours:-1,-1,1,4,5, Type:0, Priority:53, totalHours:10, ID:156, project:2
Hours:2,3,6,-1,1, Type:0, Priority:94, totalHours:12, ID:157, project:2
Hours:7,-1,-1,-1,7, Type:0, Priority:55, totalHours:14, ID:158, project:2
Hours:7,3,-1,3,-1, Type:0, Priority:4, totalHours:13, ID:159, project:2
Hours:-1,-1,-1,7,1, Type:0, Priority:37, totalHours:8, ID:160, project:2
Hours:6,6,5,-1,8, Type:0, Priority:40, totalHours:25, ID:161, project:2
Hours:5,-1,4,-1,-1, Type:0, Priority:30, totalHours:9, ID:162, project:2
Hours:9,-1,-1,1,-1, Type:0, Priority:78, totalHours:10, ID:163, project:2
Hours:-1,9,-1,-1,2, Type:0, Priority:96, totalHours:11, ID:164, project:2
Hours:3,8,7,4,5, Type:0, Priority:24, totalHours:27, ID:165, project:2
Hours:-1,-1,7,6,-1, Type:0, Priority:87, totalHours:13, ID:166, project:2
Hours:-1,4,8,-1,-1, Type:0, Priority:82, totalHours:12, ID:167, project:2
Hours:-1,3,8,-1,4, Type:0, Priority:82, totalHours:15, ID:168, project:2
Hours:-1,6,-1,2,4, Type:0, Priority:17, totalHours:12, ID:169, project:2
Hours:-1,-1,-1,4,3, Type:0, Priority:58, totalHours:7, ID:170, project:2
Hours:8,-1,9,3,2, Type:0, Priority:4, totalHours:22, ID:171, project:2
Hours:-1,-1,9,2,-1, Type:0, Priority:93, totalHours:11, ID:172, project:2
Hours:7,5,-1,-1,7, Type:0, Priority:3, totalHours:19, ID:173, project:2
Hours:-1,2,4,-1,6, Type:0, Priority:81, totalHours:12, ID:174, project:2
Hours:9,4,-1,1,5, Type:0, Priority:55, totalHours:19, ID:175, project:2
Hours:7,-1,2,6,2, Type:0, Priority:94, totalHours:17, ID:176, project:2
Hours:1,3,6,1,1, Type:0, Priority:35, totalHours:12, ID:177, project:2
Hours:7,9,7,5,3, Type:0, Priority:84, totalHours:31, ID:178, project:2
Hours:2,8,4,-1,-1, Type:0, Priority:7, totalHours:14, ID:179, project:2
Hours:-1,-1,7,-1,-1, Type:0, Priority:35, totalHours:7, ID:180, project:2
Hours:-1,9,-1,6,4, Type:0, Priority:95, totalHours:19, ID:181, project:2
Hours:3,-1,-1,1,3, Type:0, Priority:72, totalHours:7, ID:182, project:2
Hours:7,4,4,-1,-1, Type:0, Priority:33, totalHours:15, ID:183, project:2
Hours:9,2,-1,8,-1, Type:0, Priority:56, totalHours:19, ID:184, project:2
Hours:5,9,4,3,-1, Type:0, Priority:60, totalHours:21, ID:185, project:2
Hours:-1,8,2,-1,9, Type:0, Priority:17, totalHours:19, ID:186, project:2
Hours:3,7,-1,9,9, Type:0, Priority:80, totalHours:28, ID:187, project:2
Hours:-1,7,9,-1,-1, Type:0, Priority:71, totalHours:16, ID:188, project:2
Hours:7,-1,2,7,8, Type:0, Priority:97, totalHours:24, ID:189, project:2
Hours:-1,5,7,8,-1, Type:0, Priority:13, totalHours:20, ID:190, project:2
Hours:3,9,1,1,3, Type:0, Priority:16, totalHours:17, ID:191, project:2
Hours:1,9,8,4,2, Type:0, Priority:71, totalHours:24, ID:192, project:2
Hours:6,2,9,8,-1, Type:0, Priority:23, totalHours:25, ID:193, project:2
Hours:6,9,9,1,-1, Type:0, Priority:64, totalHours:25, ID:194, project:2
Hours:8,-1,5,2,-1, Type:0, Priority:82, totalHours:15, ID:195, project:2
Hours:-1,-1,6,8,2, Type:0, Priority:61, totalHours:16, ID:196, project:2
Hours:4,3,3,1,6, Type:0, Priority:3, totalHours:17, ID:197, project:2
Hours:5,7,1,2,-1, Type:0, Priority:1, totalHours:15, ID:198, project:2
Hours:9,-1,3,1,-1, Type:0, Priority:91, totalHours:13, ID:199, project:2
Hours:-1,6,2,-1,8, Type:0, Priority:9, totalHours:16, ID:200, project:2
Hours:3,-1,5,9,-1, Type:0, Priority:87, totalHours:17, ID:201, project:3
Hours:1,5,6,6,6, Type:0, Priority:10, totalHours:24, ID:202, project:3
Hours:8,3,1,2,-1, Type:0, Priority:78, totalHours:14, ID:203, project:3
Hours:1,5,4,2,3, Type:0, Priority:24, totalHours:15, ID:204, project:3
Hours:9,-1,5,5,-1, Type:0, Priority:80, totalHours:19, ID:205, project:3
Hours:-1,-1,6,-1,6, Type:0, Priority:33, totalHours:12, ID:206, project:3
Hours:3,-1,-1,-1,-1, Type:0, Priority:42, totalHours:3, ID:207, project:3
Hours:4,-1,9,-1,2, Type:0, Priority:80, totalHours:15, ID:208, project:3
Hours:-1,5,6,-1,3, Type:0, Priority:78, totalHours:14, ID:209, project:3
Hours:8,4,-1,-1,5, Type:0, Priority:93, totalHours:17, ID:210, project:3
Hours:5,-1,8,4,5, Type:0, Priority:27, totalHours:22, ID:211, project:3
Hours:4,-1,-1,4,8, Type:0, Priority:20, totalHours:16, ID:212, project:3
Hours:1,2,-1,5,4, Type:0, Priority:63, totalHours:12, ID:213, project:3
Hours:7,-1,9,1,5, Type:0, Priority:69, totalHours:22, ID:214, project:3
Hours:-1,2,-1,-1,3, Type:0, Priority:87, totalHours:5, ID:215, project:3
Hours:1,3,-1,2,2, Type:0, Priority:28, totalHours:8, ID:216, project:3
Hours:5,1,-1,1,-1, Type:0, Priority:34, totalHours:7, ID:217, project:3
Hours:1,8,8,-1,-1, Type:0, Priority:21, totalHours:17, ID:218, project:3
Hours:-1,2,-1,-1,-1, Type:0, Priority:65, totalHours:2, ID:219, project:3
Hours:2,9,-1,1,-1, Type:0, Priority:63, totalHours:12, ID:220, project:3
Hours:5,9,-1,5,5, Type:0, Priority:55, totalHours:24, ID:221, project:3
Hours:-1,-1,9,3,-1, Type:0, Priority:49, totalHours:12, ID:222, project:3
Hours:5,-1,2,6,1, Type:0, Priority:82, totalHours:14, ID:223, project:3
Hours:6,5,1,6,-1, Type:0, Priority:83, totalHours:18, ID:224, project:3
Hours:-1,-1,9,5,7, Type:0, Priority:71, totalHours:21, ID:225, project:3
Hours:7,8,2,-1,5, Type:0, Priority:42, totalHours:22, ID:226, project:3
Hours:2,4,-1,9,1, Type:0, Priority:7, totalHours:16, ID:227, project:3
Hours:4,2,7,-1,3, Type:0, Priority:84, totalHours:16, ID:228, project:3
Hours:-1,-1,-1,5,4, Type:0, Priority:97, totalHours:9, ID:229, project:3
Hours:-1,9,7,8,1, Type:0, Priority:51, totalHours:25, ID:230, project:3
Hours:-1,-1,4,7,1, Type:0, Priority:11, totalHours:12, ID:231, project:3
Hours:5,-1,5,4,2, Type:0, Priority:53, totalHours:16, ID:232, project:3
Hours:3,8,8,-1,4, Type:0, Priority:51, totalHours:23, ID:233, project:3
Hours:8,4,2,3,3, Type:0, Priority:3, totalHours:20, ID:234, project:3
Hours:8,-1,1,2,1, Type:0, Priority:18, totalHours:12, ID:235, project:3
Hours:3,-1,9,-1,-1, Type:0, Priority:31, totalHours:12, ID:236, project:3
Hours:4,-1,2,-1,-1, Type:0, Priority:36, totalHours:6, ID:237, project:3
Hours:5,-1,7,7,6, Type:0, Priority:92, totalHours:25, ID:238, project:3
Hours:7,8,-1,9,6, Type:0, Priority:64, totalHours:30, ID:239, project:3
Hours:6,1,8,6,1, Type:0, Priority:96, totalHours:22, ID:240, project:3
Hours:-1,-1,-1,-1,6, Type:0, Priority:70, totalHours:6, ID:241, project:3
Hours:2,-1,-1,5,7, Type:0, Priority:77, totalHours:14, ID:242, project:3
Hours:-1,1,5,-1,5, Type:0, Priority:85, totalHours:11, ID:243, project:3
Hours:2,6,-1,7,-1, Type:0, Priority:69, totalHours:15, ID:244, project:3
Hours:8,-1,2,-1,-1, Type:0, Priority:47, totalHours:10, ID:245, project:3
Hours:9,5,6,3,1, Type:0, Priority:2, totalHours:24, ID:246, project:3
Hours:6,7,-1,-1,4, Type:0, Priority:76, totalHours:17, ID:247, project:3
Hours:-1,8,3,-1,-1, Type:0, Priority:8, totalHours:11, ID:248, project:3
Hours:4,-1,1,-1,2, Type:0, Priority:21, totalHours:7, ID:249, project:3
Hours:2,2,9,-1,7, Type:0, Priority:38, totalHours:20, ID:250, project:3
Hours:-1,3,-1,7,7, Type:0, Priority:85, totalHours:17, ID:251, project:3
Hours:6,6,2,6,7, Type:0, Priority:72, totalHours:27, ID:252, project:3
Hours:-1,5,-1,1,3, Type:0, Priority:8, totalHours:9, ID:253, project:3
Hours:1,-1,-1,2,1, Type:0, Priority:82, totalHours:4, ID:254, project:3
Hours:5,2,-1,7,-1, Type:0, Priority:34, totalHours:14, ID:255, project:3
Hours:5,6,6,3,-1, Type:0, Priority:21, totalHours:20, ID:256, project:3
Hours:2,7,2,-1,-1, Type:0, Priority:98, totalHours:11, ID:257, project:3
Hours:3,-1,-1,-1,-1, Type:0, Priority:69, totalHours:3, ID:258, project:3
Hours:-1,-1,9,2,-1, Type:0, Priority:29, totalHours:11, ID:259, project:3
Hours:-1,6,-1,7,-1, Type:0, Priority:97, totalHours:13, ID:260, project:3
Hours:4,8,7,7,1, Type:0, Priority:58, totalHours:27, ID:261, project:3
Hours:-1,9,4,7,5, Type:0, Priority:73, totalHours:25, ID:262, project:3
Hours:7,4,-1,1,6, Type:0, Priority:86, totalHours:18, ID:263, project:3
Hours:7,9,9,-1,1, Type:0, Priority:38, totalHours:26, ID:264, project:3
Hours:5,2,-1,-1,6, Type:0, Priority:51, totalHours:13, ID:265, project:3
Hours:2,-1,2,1,-1, Type:0, Priority:46, totalHours:5, ID:266, project:3
Hours:-1,3,3,-1,-1, Type:0, Priority:80, totalHours:6, ID:267, project:3
Hours:9,3,4,6,5, Type:0, Priority:4, totalHours:27, ID:268, project:3
Hours:8,-1,-1,6,-1, Type:0, Priority:0, totalHours:14, ID:269, project:3
Hours:-1,1,4,4,-1, Type:0, Priority:96, totalHours:9, ID:270, project:3
Hours:3,-1,3,2,4, Type:0, Priority:77, totalHours:12, ID:271, project:3
Hours:-1,9,9,7,-1, Type:0, Priority:56, totalHours:25, ID:272, project:3
Hours:8,-1,-1,1,-1, Type:0, Priority:7, totalHours:9, ID:273, project:3
Hours:-1,1,7,-1,7, Type:0, Priority:48, totalHours:15, ID:274, project:3
Hours:6,7,7,9,2, Type:0, Priority:3, totalHours:31, ID:275, project:3
Hours:-1,-1,-1,8,-1, Type:0, Priority:80, totalHours:8, ID:276, project:3
Hours:4,-1,-1,2,7, Type:0, Priority:42, totalHours:13, ID:277, project:3
Hours:-1,-1,2,-1,8, Type:0, Priority:33, totalHours:10, ID:278, project:3
Hours:3,-1,-1,-1,2, Type:0, Priority:69, totalHours:5, ID:279, project:3
Hours:5,4,4,2,6, Type:0, Priority:23, totalHours:21, ID:280, project:3
Hours:5,-1,5,-1,6, Type:0, Priority:79, totalHours:16, ID:281, project:3
Hours:-1,4,3,5,8, Type:0, Priority:3, totalHours:20, ID:282, project:3
Hours:-1,8,-1,-1,-1, Type:0, Priority:8, totalHours:8, ID:283, project:3
Hours:-1,-1,9,-1,-1, Type:0, Priority:3, totalHours:9, ID:284, project:3
Hours:5,7,-1,4,-1, Type:0, Priority:66, totalHours:16, ID:285, project:3
Hours:7,-1,-1,9,3, Type:0, Priority:1, totalHours:19, ID:286, project:3
Hours:1,-1,6,6,-1, Type:0, Priority:40, totalHours:13, ID:287, project:3
Hours:-1,-1,6,2,-1, Type:0, Priority:19, totalHours:8, ID:288, project:3
Hours:-1,4,9,1,-1, Type:0, Priority:56, totalHours:14, ID:289, project:3
Hours:9,2,9,6,-1, Type:0, Priority:23, totalHours:26, ID:290, project:3
Hours:-1,5,2,-1,6, Type:0, Priority:9, totalHours:13, ID:291, project:3
Hours:-1,4,-1,5,-1, Type:0, Priority:63, totalHours:9, ID:292, project:3
Hours:5,-1,-1,3,5, Type:0, Priority:92, totalHours:13, ID:293, project:3
Hours:-1,9,-1,-1,-1, Type:0, Priority:66, totalHours:9, ID:294, project:3
Hours:-1,6,-1,9,2, Type:0, Priority:48, totalHours:17, ID:295, project:3
Hours:4,-1,8,4,3, Type:0, Priority:13, totalHours:19, ID:296, project:3
Hours:5,8,9,-1,6, Type:0, Priority:42, totalHours:28, ID:297, project:3
Hours:1,-1,4,6,7, Type:0, Priority:23, totalHours:18, ID:298, project:3
Hours:3,1,-1,-1,-1, Type:0, Priority:93, totalHours:4, ID:299, project:3
Hours:2,-1,6,7,2, Type:0, Priority:33, totalHours:17, ID:300, project:3
Hours:5,1,-1,3,-1, Type:0, Priority:77, totalHours:9, ID:301, project:4
Hours:4,-1,7,5,5, Type:0, Priority:8, totalHours:21, ID:302, project:4
Hours:-1,-1,5,-1,8, Type:0, Priority:53, totalHours:13, ID:303, project:4
Hours:1,-1,6,-1,-1, Type:0, Priority:43, totalHours:7, ID:304, project:4
Hours:5,-1,-1,-1,2, Type:0, Priority:83, totalHours:7, ID:305, project:4
Hours:8,-1,4,2,9, Type:0, Priority:91, totalHours:23, ID:306, project:4
Hours:-1,1,4,-1,1, Type:0, Priority:62, totalHours:6, ID:307, project:4
Hours:2,6,3,3,6, Type:0, Priority:74, totalHours:20, ID:308, project:4
Hours:5,-1,4,2,-1, Type:0, Priority:59, totalHours:11, ID:309, project:4
Hours:-1,-1,3,-1,4, Type:0, Priority:34, totalHours:7, ID:310, project:4
Hours:4,3,9,1,1, Type:0, Priority:21, totalHours:18, ID:311, project:4
Hours:6,5,2,9,2, Type:0, Priority:37, totalHours:24, ID:312, project:4
Hours:9,7,-1,5,5, Type:0, Priority:26, totalHours:26, ID:313, project:4
Hours:-1,9,4,-1,-1, Type:0, Priority:17, totalHours:13, ID:314, project:4
Hours:1,-1,-1,-1,5, Type:0, Priority:13, totalHours:6, ID:315, project:4
Hours:5,7,-1,-1,3, Type:0, Priority:12, totalHours:15, ID:316, project:4
Hours:9,9,4,8,9, Type:0, Priority:95, totalHours:39, ID:317, project:4
Hours:-1,-1,6,2,1, Type:0, Priority:70, totalHours:9, ID:318, project:4
Hours:3,-1,6,2,2, Type:0, Priority:9, totalHours:13, ID:319, project:4
Hours:6,-1,5,4,-1, Type:0, Priority:63, totalHours:15, ID:320, project:4
Hours:8,-1,7,7,-1, Type:0, Priority:4, totalHours:22, ID:321, project:4
Hours:-1,-1,3,-1,-1, Type:0, Priority:70, totalHours:3, ID:322, project:4
Hours:-1,1,6,3,5, Type:0, Priority:24, totalHours:15, ID:323, project:4
Hours:7,6,5,4,9, Type:0, Priority:16, totalHours:31, ID:324, project:4
Hours:2,-1,4,3,-1, Type:0, Priority:29, totalHours:9, ID:325, project:4
Hours:4,1,4,2,6, Type:0, Priority:24, totalHours:17, ID:326, project:4
Hours:1,3,-1,-1,8, Type:0, Priority:88, totalHours:12, ID:327, project:4
Hours:9,4,-1,8,9, Type:0, Priority:50, totalHours:30, ID:328, project:4
Hours:9,-1,1,-1,1, Type:0, Priority:27, totalHours:11, ID:329, project:4
Hours:4,4,6,8,1, Type:0, Priority:77, totalHours:23, ID:330, project:4
Hours:3,7,2,-1,2, Type:0, Priority:30, totalHours:14, ID:331, project:4
Hours:4,-1,5,-1,7, Type:0, Priority:47, totalHours:16, ID:332, project:4
Hours:4,2,-1,5,6, Type:0, Priority:74, totalHours:17, ID:333, project:4
Hours:-1,6,-1,-1,7, Type:0, Priority:40, totalHours:13, ID:334, project:4
Hours:-1,2,9,9,-1, Type:0, Priority:11, totalHours:20, ID:335, project:4
Hours:-1,3,7,9,2, Type:0, Priority:92, totalHours:21, ID:336, project:4
Hours:2,4,-1,-1,-1, Type:0, Priority:5, totalHours:6, ID:337, project:4
Hours:7,6,-1,5,-1, Type:0, Priority:82, totalHours:18, ID:338, project:4
Hours:7,4,9,-1,6, Type:0, Priority:54, totalHours:26, ID:339, project:4
Hours:3,5,-1,-1,5, Type:0, Priority:1, totalHours:13, ID:340, project:4
Hours:3,4,-1,7,-1, Type:0, Priority:97, totalHours:14, ID:341, project:4
Hours:-1,-1,-1,8,2, Type:0, Priority:60, totalHours:10, ID:342, project:4
Hours:-1,9,-1,-1,2, Type:0, Priority:74, totalHours:11, ID:343, project:4
Hours:3,7,3,8,-1, Type:0, Priority:41, totalHours:21, ID:344, project:4
Hours:2,8,6,8,-1, Type:0, Priority:43, totalHours:24, ID:345, project:4
Hours:6,-1,-1,2,-1, Type:0, Priority:67, totalHours:8, ID:346, project:4
Hours:5,4,7,3,-1, Type:0, Priority:65, totalHours:19, ID:347, project:4
Hours:7,-1,8,-1,2, Type:0, Priority:18, totalHours:17, ID:348, project:4
Hours:1,8,-1,9,-1, Type:0, Priority:91, totalHours:18, ID:349, project:4
Hours:4,5,-1,8,1, Type:0, Priority:63, totalHours:18, ID:350, project:4
Hours:7,-1,2,9,5, Type:0, Priority:41, totalHours:23, ID:351, project:4
Hours:3,7,-1,5,-1, Type:0, Priority:9, totalHours:15, ID:352, project:4
Hours:5,3,6,-1,-1, Type:0, Priority:70, totalHours:14, ID:353, project:4
Hours:2,-1,6,-1,8, Type:0, Priority:51, totalHours:16, ID:354, project:4
Hours:6,-1,5,6,8, Type:0, Priority:43, totalHours:25, ID:355, project:4
Hours:5,4,5,-1,-1, Type:0, Priority:90, totalHours:14, ID:356, project:4
Hours:7,9,-1,1,1, Type:0, Priority:66, totalHours:18, ID:357, project:4
Hours:1,-1,-1,4,-1, Type:0, Priority:44, totalHours:5, ID:358, project:4
Hours:1,9,2,-1,-1, Type:0, Priority:76, totalHours:12, ID:359, project:4
Hours:2,3,9,8,5, Type:0, Priority:8, totalHours:27, ID:360, project:4
Hours:3,-1,-1,-1,8, Type:0, Priority:54, totalHours:11, ID:361, project:4
Hours:-1,6,6,7,3, Type:0, Priority:44, totalHours:22, ID:362, project:4
Hours:2,7,8,3,-1, Type:0, Priority:21, totalHours:20, ID:363, project:4
Hours:1,1,4,3,-1, Type:0, Priority:64, totalHours:9, ID:364, project:4
Hours:1,-1,8,3,4, Type:0, Priority:55, totalHours:16, ID:365, project:4
Hours:1,-1,5,8,-1, Type:0, Priority:8, totalHours:14, ID:366, project:4
Hours:-1,9,3,-1,4, Type:0, Priority:94, totalHours:16, ID:367, project:4
Hours:-1,6,3,-1,8, Type:0, Priority:92, totalHours:17, ID:368, project:4
Hours:-1,8,4,-1,6, Type:0, Priority:68, totalHours:18, ID:369, project:4
Hours:4,-1,-1,4,4, Type:0, Priority:98, totalHours:12, ID:370, project:4
Hours:-1,-1,7,9,5, Type:0, Priority:45, totalHours:21, ID:371, project:4
Hours:-1,8,2,5,8, Type:0, Priority:32, totalHours:23, ID:372, project:4
Hours:4,7,-1,-1,7, Type:0, Priority:68, totalHours:18, ID:373, project:4
Hours:1,3,-1,9,-1, Type:0, Priority:55, totalHours:13, ID:374, project:4
Hours:-1,-1,-1,-1,-1, Type:0, Priority:40, totalHours:0, ID:375, project:4
Hours:4,-1,-1,-1,-1, Type:0, Priority:51, totalHours:4, ID:376, project:5
Hours:8,3,9,7,4, Type:0, Priority:53, totalHours:31, ID:377, project:5
Hours:6,4,8,-1,1, Type:0, Priority:19, totalHours:19, ID:378, project:5
Hours:2,-1,-1,-1,9, Type:0, Priority:92, totalHours:11, ID:379, project:5
Hours:1,4,7,2,8, Type:0, Priority:75, totalHours:22, ID:380, project:5
Hours:1,9,6,-1,-1, Type:0, Priority:57, totalHours:16, ID:381, project:5
Hours:-1,-1,-1,6,3, Type:0, Priority:44, totalHours:9, ID:382, project:5
Hours:-1,7,-1,3,-1, Type:0, Priority:21, totalHours:10, ID:383, project:5
Hours:5,7,9,2,1, Type:0, Priority:2, totalHours:24, ID:384, project:5
Hours:5,5,-1,3,1, Type:0, Priority:91, totalHours:14, ID:385, project:5
Hours:9,-1,6,1,4, Type:0, Priority:42, totalHours:20, ID:386, project:5
Hours:8,8,-1,9,1, Type:0, Priority:88, totalHours:26, ID:387, project:5
Hours:6,1,-1,8,-1, Type:0, Priority:79, totalHours:15, ID:388, project:5
Hours:5,5,6,1,3, Type:0, Priority:90, totalHours:20, ID:389, project:5
Hours:-1,1,2,-1,1, Type:0, Priority:52, totalHours:4, ID:390, project:5
Hours:9,8,-1,7,3, Type:0, Priority:36, totalHours:27, ID:391, project:5
Hours:8,5,8,7,2, Type:0, Priority:83, totalHours:30, ID:392, project:5
Hours:5,-1,9,7,-1, Type:0, Priority:59, totalHours:21, ID:393, project:5
Hours:7,8,-1,3,-1, Type:0, Priority:72, totalHours:18, ID:394, project:5
Hours:5,8,-1,-1,6, Type:0, Priority:15, totalHours:19, ID:395, project:5
Hours:-1,-1,4,3,2, Type:0, Priority:86, totalHours:9, ID:396, project:5
Hours:8,5,1,-1,-1, Type:0, Priority:54, totalHours:14, ID:397, project:5
Hours:8,3,-1,-1,6, Type:0, Priority:24, totalHours:17, ID:398, project:5
Hours:4,7,2,2,8, Type:0, Priority:64, totalHours:23, ID:399, project:5
Hours:-1,-1,7,6,-1, Type:0, Priority:4, totalHours:13, ID:400, project:5
Hours:3,6,-1,8,8, Type:0, Priority:59, totalHours:25, ID:401, project:6
Hours:-1,7,9,-1,-1, Type:0, Priority:44, totalHours:16, ID:402, project:6
Hours:7,-1,2,4,-1, Type:0, Priority:59, totalHours:13, ID:403, project:6
Hours:3,-1,-1,5,-1, Type:0, Priority:2, totalHours:8, ID:404, project:6
Hours:2,2,2,1,2, Type:0, Priority:63, totalHours:9, ID:405, project:6
Hours:7,-1,-1,-1,3, Type:0, Priority:86, totalHours:10, ID:406, project:6
Hours:-1,-1,-1,-1,-1, Type:0, Priority:79, totalHours:0, ID:407, project:6
Hours:8,-1,-1,-1,-1, Type:0, Priority:4, totalHours:8, ID:408, project:6
Hours:3,-1,2,-1,8, Type:0, Priority:86, totalHours:13, ID:409, project:6
Hours:7,6,1,7,-1, Type:0, Priority:40, totalHours:21, ID:410, project:6
Hours:1,5,-1,-1,-1, Type:0, Priority:44, totalHours:6, ID:411, project:6
Hours:-1,7,9,-1,2, Type:0, Priority:23, totalHours:18, ID:412, project:6
Hours:3,8,2,4,7, Type:0, Priority:7, totalHours:24, ID:413, project:6
Hours:-1,-1,2,1,3, Type:0, Priority:92, totalHours:6, ID:414, project:6
Hours:9,1,-1,-1,3, Type:0, Priority:73, totalHours:13, ID:415, project:6
Hours:9,7,9,3,-1, Type:0, Priority:86, totalHours:28, ID:416, project:6
Hours:9,4,6,9,2, Type:0, Priority:44, totalHours:30, ID:417, project:6
Hours:-1,9,6,-1,4, Type:0, Priority:24, totalHours:19, ID:418, project:6
Hours:-1,3,7,-1,2, Type:0, Priority:90, totalHours:12, ID:419, project:6
Hours:7,5,7,2,7, Type:0, Priority:48, totalHours:28, ID:420, project:6
Hours:-1,9,5,-1,8, Type:0, Priority:57, totalHours:22, ID:421, project:6
Hours:2,-1,5,4,4, Type:0, Priority:52, totalHours:15, ID:422, project:6
Hours:-1,2,3,3,-1, Type:0, Priority:73, totalHours:8, ID:423, project:6
Hours:8,1,8,-1,-1, Type:0, Priority:31, totalHours:17, ID:424, project:6
Hours:5,3,3,9,-1, Type:0, Priority:73, totalHours:20, ID:425, project:6
Hours:-1,7,3,1,-1, Type:0, Priority:15, totalHours:11, ID:426, project:6
Hours:6,4,6,-1,4, Type:0, Priority:85, totalHours:20, ID:427, project:6
Hours:6,7,1,-1,2, Type:0, Priority:76, totalHours:16, ID:428, project:6
Hours:7,4,-1,6,9, Type:0, Priority:23, totalHours:26, ID:429, project:6
Hours:2,-1,-1,5,-1, Type:0, Priority:12, totalHours:7, ID:430, project:6
Hours:5,9,8,6,-1, Type:0, Priority:94, totalHours:28, ID:431, project:6
Hours:7,-1,2,4,7, Type:0, Priority:61, totalHours:20, ID:432, project:6
Hours:6,3,-1,1,1, Type:0, Priority:88, totalHours:11, ID:433, project:6
Hours:-1,-1,-1,-1,4, Type:0, Priority:79, totalHours:4, ID:434, project:6
Hours:9,3,1,1,2, Type:0, Priority:6, totalHours:16, ID:435, project:6
Hours:-1,-1,-1,-1,-1, Type:0, Priority:56, totalHours:0, ID:436, project:6
Hours:-1,-1,7,-1,6, Type:0, Priority:83, totalHours:13, ID:437, project:6
Hours:9,9,2,-1,-1, Type:0, Priority:77, totalHours:20, ID:438, project:6
Hours:-1,-1,9,-1,-1, Type:0, Priority:41, totalHours:9, ID:439, project:6
Hours:-1,5,6,-1,4, Type:0, Priority:82, totalHours:15, ID:440, project:6
Hours:1,5,8,4,4, Type:0, Priority:34, totalHours:22, ID:441, project:6
Hours:8,5,4,-1,-1, Type:0, Priority:20, totalHours:17, ID:442, project:6
Hours:5,1,6,2,7, Type:0, Priority:15, totalHours:21, ID:443, project:6
Hours:6,-1,8,5,-1, Type:0, Priority:91, totalHours:19, ID:444, project:6
Hours:-1,4,-1,8,4, Type:0, Priority:68, totalHours:16, ID:445, project:6
Hours:-1,3,1,1,-1, Type:0, Priority:3, totalHours:5, ID:446, project:6
Hours:-1,9,3,1,1, Type:0, Priority:97, totalHours:14, ID:447, project:6
Hours:-1,5,8,4,-1, Type:0, Priority:83, totalHours:17, ID:448, project:6
Hours:-1,8,4,7,2, Type:0, Priority:62, totalHours:21, ID:449, project:6
Hours:4,-1,2,1,9, Type:0, Priority:74, totalHours:16, ID:450, project:6
Hours:-1,-1,5,-1,1, Type:0, Priority:52, totalHours:6, ID:451, project:6
Hours:9,7,-1,2,2, Type:0, Priority:74, totalHours:20, ID:452, project:6
Hours:-1,-1,7,-1,-1, Type:0, Priority:13, totalHours:7, ID:453, project:6
Hours:2,8,7,-1,-1, Type:0, Priority:68, totalHours:17, ID:454, project:6
Hours:4,3,4,-1,-1, Type:0, Priority:21, totalHours:11, ID:455, project:6
Hours:9,9,-1,-1,7, Type:0, Priority:15, totalHours:25, ID:456, project:6
Hours:1,4,1,9,-1, Type:0, Priority:17, totalHours:15, ID:457, project:6
Hours:9,9,1,3,-1, Type:0, Priority:54, totalHours:22, ID:458, project:6
Hours:1,-1,1,-1,7, Type:0, Priority:16, totalHours:9, ID:459, project:6
Hours:9,8,1,9,7, Type:0, Priority:83, totalHours:34, ID:460, project:6
Hours:3,-1,2,-1,9, Type:0, Priority:47, totalHours:14, ID:461, project:6
Hours:2,-1,-1,8,-1, Type:0, Priority:66, totalHours:10, ID:462, project:6
Hours:-1,7,-1,4,6, Type:0, Priority:72, totalHours:17, ID:463, project:6
Hours:-1,9,-1,9,5, Type:0, Priority:56, totalHours:23, ID:464, project:6
Hours:8,-1,3,2,-1, Type:0, Priority:46, totalHours:13, ID:465, project:6
Hours:5,7,7,2,5, Type:0, Priority:5, totalHours:26, ID:466, project:6
Hours:-1,9,3,-1,-1, Type:0, Priority:65, totalHours:12, ID:467, project:6
Hours:-1,6,3,3,1, Type:0, Priority:32, totalHours:13, ID:468, project:6
Hours:-1,1,-1,5,2, Type:0, Priority:11, totalHours:8, ID:469, project:6
Hours:-1,-1,8,-1,-1, Type:0, Priority:16, totalHours:8, ID:470, project:6
Hours:3,-1,3,-1,6, Type:0, Priority:41, totalHours:12, ID:471, project:6
Hours:9,4,4,8,-1, Type:0, Priority:68, totalHours:25, ID:472, project:6
Hours:7,4,-1,-1,7, Type:0, Priority:21, totalHours:18, ID:473, project:6
Hours:9,9,5,3,8, Type:0, Priority:63, totalHours:34, ID:474, project:6
Hours:-1,-1,-1,8,5, Type:0, Priority:71, totalHours:13, ID:475, project:6
Hours:7,5,3,4,-1, Type:0, Priority:79, totalHours:19, ID:476, project:6
Hours:4,-1,4,-1,6, Type:0, Priority:66, totalHours:14, ID:477, project:6
Hours:-1,9,-1,4,-1, Type:0, Priority:16, totalHours:13, ID:478, project:6
Hours:7,7,-1,-1,2, Type:0, Priority:65, totalHours:16, ID:479, project:6
Hours:5,3,3,7,6, Type:0, Priority:6, totalHours:24, ID:480, project:6
Hours:9,3,8,9,3, Type:0, Priority:68, totalHours:32, ID:481, project:6
Hours:7,3,1,-1,2, Type:0, Priority:14, totalHours:13, ID:482, project:6
Hours:6,9,-1,-1,3, Type:0, Priority:90, totalHours:18, ID:483, project:6
Hours:-1,6,-1,5,-1, Type:0, Priority:28, totalHours:11, ID:484, project:6
Hours:-1,6,6,9,6, Type:0, Priority:54, totalHours:27, ID:485, project:6
Hours:9,7,5,6,-1, Type:0, Priority:71, totalHours:27, ID:486, project:6
Hours:3,3,-1,-1,6, Type:0, Priority:47, totalHours:12, ID:487, project:6
Hours:2,-1,6,-1,7, Type:0, Priority:77, totalHours:15, ID:488, project:6
Hours:3,-1,-1,-1,1, Type:0, Priority:59, totalHours:4, ID:489, project:6
Hours:4,9,8,8,-1, Type:0, Priority:72, totalHours:29, ID:490, project:6
Hours:4,-1,7,3,-1, Type:0, Priority:4, totalHours:14, ID:491, project:6
Hours:7,8,3,2,-1, Type:0, Priority:73, totalHours:20, ID:492, project:6
Hours:-1,7,-1,6,3, Type:0, Priority:22, totalHours:16, ID:493, project:6
Hours:-1,1,6,4,3, Type:0, Priority:43, totalHours:14, ID:494, project:6
Hours:6,6,-1,-1,2, Type:0, Priority:22, totalHours:14, ID:495, project:6
Hours:2,7,-1,9,-1, Type:0, Priority:74, totalHours:18, ID:496, project:6
Hours:5,2,-1,5,-1, Type:0, Priority:2, totalHours:12, ID:497, project:6
Hours:3,3,5,1,2, Type:0, Priority:6, totalHours:14, ID:498, project:6
Hours:8,3,-1,9,4, Type:0, Priority:5, totalHours:24, ID:499, project:6
Hours:5,8,2,9,2, Type:0, Priority:52, totalHours:26, ID:500, project:6
Hours:9,-1,-1,-1,-1, Type:0, Priority:11, totalHours:9, ID:501, project:6
Hours:4,-1,1,4,-1, Type:0, Priority:47, totalHours:9, ID:502, project:6
Hours:5,2,-1,5,8, Type:0, Priority:74, totalHours:20, ID:503, project:6
Hours:5,-1,8,3,2, Type:0, Priority:31, totalHours:18, ID:504, project:6
Hours:5,3,-1,-1,3, Type:0, Priority:21, totalHours:11, ID:505, project:6
Hours:9,-1,-1,7,1, Type:0, Priority:76, totalHours:17, ID:506, project:6
Hours:-1,-1,-1,1,-1, Type:0, Priority:22, totalHours:1, ID:507, project:6
Hours:8,-1,8,8,2, Type:0, Priority:51, totalHours:26, ID:508, project:6
Hours:-1,8,-1,1,-1, Type:0, Priority:1, totalHours:9, ID:509, project:6
Hours:-1,1,-1,1,-1, Type:0, Priority:12, totalHours:2, ID:510, project:6
Hours:5,-1,3,2,-1, Type:0, Priority:85, totalHours:10, ID:511, project:6
Hours:6,-1,7,9,2, Type:0, Priority:29, totalHours:24, ID:512, project:6
Hours:9,5,-1,-1,2, Type:0, Priority:11, totalHours:16, ID:513, project:6
Hours:2,-1,5,-1,7, Type:0, Priority:45, totalHours:14, ID:514, project:6
Hours:-1,-1,2,-1,8, Type:0, Priority:75, totalHours:10, ID:515, project:6
Hours:-1,3,6,1,-1, Type:0, Priority:96, totalHours:10, ID:516, project:6
Hours:9,1,3,-1,9, Type:0, Priority:83, totalHours:22, ID:517, project:6
Hours:2,5,1,1,9, Type:0, Priority:81, totalHours:18, ID:518, project:6
Hours:-1,-1,9,7,-1, Type:0, Priority:83, totalHours:16, ID:519, project:6
Hours:-1,-1,2,-1,3, Type:0, Priority:37, totalHours:5, ID:520, project:6
Hours:3,-1,2,3,1, Type:0, Priority:7, totalHours:9, ID:521, project:6
Hours:1,5,4,1,7, Type:0, Priority:23, totalHours:18, ID:522, project:6
Hours:-1,-1,-1,8,7, Type:0, Priority:89, totalHours:15, ID:523, project:6
Hours:-1,8,8,9,4, Type:0, Priority:20, totalHours:29, ID:524, project:6
Hours:5,4,1,-1,3, Type:0, Priority:32, totalHours:13, ID:525, project:6
Hours:7,7,2,-1,6, Type:0, Priority:16, totalHours:22, ID:526, project:6
Hours:4,-1,1,-1,-1, Type:0, Priority:45, totalHours:5, ID:527, project:6
Hours:9,2,-1,-1,5, Type:0, Priority:74, totalHours:16, ID:528, project:6
Hours:5,6,-1,2,6, Type:0, Priority:71, totalHours:19, ID:529, project:6
Hours:-1,6,3,2,6, Type:0, Priority:24, totalHours:17, ID:530, project:6
Hours:3,-1,4,7,-1, Type:0, Priority:12, totalHours:14, ID:531, project:6
Hours:3,3,5,2,1, Type:0, Priority:96, totalHours:14, ID:532, project:6
Hours:5,8,5,7,-1, Type:0, Priority:87, totalHours:25, ID:533, project:6
Hours:-1,-1,-1,6,9, Type:0, Priority:91, totalHours:15, ID:534, project:6
Hours:-1,8,-1,2,-1, Type:0, Priority:78, totalHours:10, ID:535, project:6
Hours:3,7,2,1,5, Type:0, Priority:50, totalHours:18, ID:536, project:1
Hours:1,1,3,-1,8, Type:0, Priority:43, totalHours:13, ID:537, project:1
Hours:-1,4,-1,5,-1, Type:0, Priority:40, totalHours:9, ID:538, project:1
Hours:-1,1,6,5,-1, Type:0, Priority:10, totalHours:12, ID:539, project:1
Hours:5,5,9,5,8, Type:0, Priority:95, totalHours:32, ID:540, project:1
Hours:-1,-1,7,3,-1, Type:0, Priority:95, totalHours:10, ID:541, project:1
Hours:5,9,6,-1,2, Type:0, Priority:16, totalHours:22, ID:542, project:1
Hours:-1,1,-1,-1,-1, Type:0, Priority:83, totalHours:1, ID:543, project:1
Hours:8,6,-1,7,5, Type:0, Priority:10, totalHours:26, ID:544, project:1
Hours:-1,8,2,-1,2, Type:0, Priority:55, totalHours:12, ID:545, project:1
Hours:-1,-1,-1,-1,-1, Type:0, Priority:2, totalHours:0, ID:546, project:1
Hours:8,-1,2,-1,-1, Type:0, Priority:80, totalHours:10, ID:547, project:1
Hours:6,6,5,6,-1, Type:0, Priority:43, totalHours:23, ID:548, project:1
Hours:-1,7,6,5,9, Type:0, Priority:26, totalHours:27, ID:549, project:1
Hours:1,-1,8,5,4, Type:0, Priority:67, totalHours:18, ID:550, project:1
Hours:-1,9,4,-1,3, Type:0, Priority:30, totalHours:16, ID:551, project:1
Hours:6,5,9,-1,4, Type:0, Priority:0, totalHours:24, ID:552, project:1
Hours:5,-1,-1,6,8, Type:0, Priority:17, totalHours:19, ID:553, project:1
Hours:-1,-1,4,9,2, Type:0, Priority:8, totalHours:15, ID:554, project:1
Hours:2,2,8,1,-1, Type:0, Priority:22, totalHours:13, ID:555, project:1
Hours:1,3,6,-1,9, Type:0, Priority:5, totalHours:19, ID:556, project:1
Hours:7,-1,7,2,5, Type:0, Priority:5, totalHours:21, ID:557, project:1
Hours:1,3,9,-1,7, Type:0, Priority:95, totalHours:20, ID:558, project:1
Hours:-1,4,5,-1,-1, Type:0, Priority:34, totalHours:9, ID:559, project:1
Hours:-1,5,9,-1,-1, Type:0, Priority:97, totalHours:14, ID:560, project:1
Hours:3,7,7,1,5, Type:0, Priority:84, totalHours:23, ID:561, project:1
Hours:8,-1,8,6,2, Type:0, Priority:22, totalHours:24, ID:562, project:1
Hours:5,6,2,7,-1, Type:0, Priority:83, totalHours:20, ID:563, project:1
Hours:3,-1,1,-1,-1, Type:0, Priority:60, totalHours:4, ID:564, project:1
Hours:7,4,4,3,-1, Type:0, Priority:84, totalHours:18, ID:565, project:1
Hours:9,-1,-1,-1,5, Type:0, Priority:28, totalHours:14, ID:566, project:1
Hours:8,7,4,6,7, Type:0, Priority:74, totalHours:32, ID:567, project:1
Hours:6,-1,-1,3,7, Type:0, Priority:51, totalHours:16, ID:568, project:1
Hours:5,-1,5,2,9, Type:0, Priority:56, totalHours:21, ID:569, project:1
Hours:4,2,-1,3,9, Type:0, Priority:53, totalHours:18, ID:570, project:1
Hours:2,-1,9,9,-1, Type:0, Priority:93, totalHours:20, ID:571, project:1
Hours:6,8,7,3,5, Type:0, Priority:66, totalHours:29, ID:572, project:1
Hours:3,9,-1,-1,6, Type:0, Priority:92, totalHours:18, ID:573, project:1
Hours:-1,-1,3,7,9, Type:0, Priority:16, totalHours:19, ID:574, project:1
Hours:5,-1,2,7,-1, Type:0, Priority:70, totalHours:14, ID:575, project:1
Hours:4,-1,-1,1,1, Type:0, Priority:96, totalHours:6, ID:576, project:1
Hours:4,-1,5,3,4, Type:0, Priority:98, totalHours:16, ID:577, project:1
Hours:1,5,5,5,7, Type:0, Priority:22, totalHours:23, ID:578, project:1
Hours:3,6,4,6,5, Type:0, Priority:43, totalHours:24, ID:579, project:1
Hours:-1,3,8,-1,2, Type:0, Priority:73, totalHours:13, ID:580, project:1
Hours:2,4,-1,5,-1, Type:0, Priority:54, totalHours:11, ID:581, project:1
Hours:-1,3,9,9,8, Type:0, Priority:81, totalHours:29, ID:582, project:1
Hours:-1,6,-1,8,-1, Type:0, Priority:79, totalHours:14, ID:583, project:1
Hours:5,9,-1,6,9, Type:0, Priority:7, totalHours:29, ID:584, project:1
Hours:4,9,8,-1,-1, Type:0, Priority:3, totalHours:21, ID:585, project:1
Hours:7,3,1,-1,1, Type:0, Priority:15, totalHours:12, ID:586, project:1
Hours:8,1,3,1,9, Type:0, Priority:21, totalHours:22, ID:587, project:1
Hours:8,-1,-1,9,6, Type:0, Priority:73, totalHours:23, ID:588, project:1
Hours:5,1,6,-1,4, Type:0, Priority:89, totalHours:16, ID:589, project:1
Hours:-1,-1,9,1,-1, Type:0, Priority:39, totalHours:10, ID:590, project:1
Hours:5,-1,-1,-1,3, Type:0, Priority:87, totalHours:8, ID:591, project:1
Hours:-1,3,3,7,3, Type:0, Priority:60, totalHours:16, ID:592, project:1
Hours:3,8,8,7,-1, Type:0, Priority:88, totalHours:26, ID:593, project:1
Hours:-1,-1,1,4,8, Type:0, Priority:12, totalHours:13, ID:594, project:1
Hours:1,-1,1,7,5, Type:0, Priority:33, totalHours:14, ID:595, project:1
Hours:-1,8,-1,6,-1, Type:0, Priority:92, totalHours:14, ID:596, project:1
Hours:7,-1,9,2,-1, Type:0, Priority:11, totalHours:18, ID:597, project:1
Hours:-1,-1,6,-1,-1, Type:0, Priority:66, totalHours:6, ID:598, project:1
Hours:3,-1,-1,-1,1, Type:0, Priority:48, totalHours:4, ID:599, project:1
Hours:8,-1,4,4,1, Type:0, Priority:65, totalHours:17, ID:600, project:1
Hours:-1,-1,-1,1,-1, Type:0, Priority:64, totalHours:1, ID:601, project:1
Hours:7,-1,-1,-1,-1, Type:0, Priority:95, totalHours:7, ID:602, project:1
Hours:4,2,-1,3,-1, Type:0, Priority:27, totalHours:9, ID:603, project:1
Hours:3,-1,7,-1,2, Type:0, Priority:41, totalHours:12, ID:604, project:1
Hours:2,9,9,-1,-1, Type:0, Priority:97, totalHours:20, ID:605, project:2
Hours:-1,7,7,-1,6, Type:0, Priority:92, totalHours:20, ID:606, project:2
Hours:8,9,-1,9,7, Type:0, Priority:88, totalHours:33, ID:607, project:2
Hours:6,-1,-1,1,7, Type:0, Priority:48, totalHours:14, ID:608, project:2
Hours:-1,-1,1,-1,-1, Type:0, Priority:90, totalHours:1, ID:609, project:2
Hours:5,6,6,4,-1, Type:0, Priority:54, totalHours:21, ID:610, project:2
Hours:9,9,2,4,8, Type:0, Priority:92, totalHours:32, ID:611, project:2
Hours:5,9,-1,8,8, Type:0, Priority:9, totalHours:30, ID:612, project:2
Hours:4,-1,-1,9,8, Type:0, Priority:60, totalHours:21, ID:613, project:2
Hours:2,1,7,4,-1, Type:0, Priority:36, totalHours:14, ID:614, project:2
Hours:3,4,-1,-1,-1, Type:0, Priority:43, totalHours:7, ID:615, project:2
Hours:4,7,4,8,7, Type:0, Priority:62, totalHours:30, ID:616, project:2
Hours:-1,8,3,6,-1, Type:0, Priority:52, totalHours:17, ID:617, project:2
Hours:8,8,-1,-1,1, Type:0, Priority:73, totalHours:17, ID:618, project:2
Hours:3,-1,3,9,-1, Type:0, Priority:73, totalHours:15, ID:619, project:2
Hours:4,7,-1,5,-1, Type:0, Priority:88, totalHours:16, ID:620, project:2
Hours:9,8,9,6,-1, Type:0, Priority:99, totalHours:32, ID:621, project:2
Hours:4,6,8,6,7, Type:0, Priority:26, totalHours:31, ID:622, project:2
Hours:-1,3,9,-1,-1, Type:0, Priority:46, totalHours:12, ID:623, project:2
Hours:1,3,2,-1,4, Type:0, Priority:22, totalHours:10, ID:624, project:2
Hours:3,-1,2,2,1, Type:0, Priority:88, totalHours:8, ID:625, project:2
Hours:8,4,7,-1,5, Type:0, Priority:60, totalHours:24, ID:626, project:2
Hours:6,4,5,5,7, Type:0, Priority:63, totalHours:27, ID:627, project:2
Hours:-1,4,-1,-1,2, Type:0, Priority:70, totalHours:6, ID:628, project:2
Hours:7,1,6,-1,-1, Type:0, Priority:54, totalHours:14, ID:629, project:2
Hours:-1,9,4,-1,-1, Type:0, Priority:26, totalHours:13, ID:630, project:2
Hours:3,7,-1,1,-1, Type:0, Priority:31, totalHours:11, ID:631, project:2
Hours:3,-1,9,-1,-1, Type:0, Priority:25, totalHours:12, ID:632, project:2
Hours:-1,7,-1,-1,1, Type:0, Priority:21, totalHours:8, ID:633, project:2
Hours:6,1,7,-1,1, Type:0, Priority:29, totalHours:15, ID:634, project:2
Hours:1,3,-1,6,-1, Type:0, Priority:75, totalHours:10, ID:635, project:2
Hours:5,4,4,-1,-1, Type:0, Priority:14, totalHours:13, ID:636, project:2
Hours:2,9,-1,-1,-1, Type:0, Priority:28, totalHours:11, ID:637, project:2
Hours:-1,-1,-1,1,-1, Type:0, Priority:9, totalHours:1, ID:638, project:2
Hours:1,1,-1,1,3, Type:0, Priority:48, totalHours:6, ID:639, project:2
Hours:2,-1,-1,6,6, Type:0, Priority:32, totalHours:14, ID:640, project:2
Hours:1,8,-1,1,7, Type:0, Priority:94, totalHours:17, ID:641, project:2
Hours:7,4,-1,-1,1, Type:0, Priority:0, totalHours:12, ID:642, project:2
Hours:2,-1,3,6,-1, Type:0, Priority:25, totalHours:11, ID:643, project:2
Hours:1,8,1,3,7, Type:0, Priority:56, totalHours:20, ID:644, project:2
Hours:5,4,-1,-1,6, Type:0, Priority:79, totalHours:15, ID:645, project:2
Hours:-1,1,-1,-1,-1, Type:0, Priority:3, totalHours:1, ID:646, project:2
Hours:9,-1,5,6,-1, Type:0, Priority:43, totalHours:20, ID:647, project:2
Hours:-1,-1,6,1,5, Type:0, Priority:69, totalHours:12, ID:648, project:2
Hours:5,6,2,2,-1, Type:0, Priority:62, totalHours:15, ID:649, project:2
Hours:-1,5,1,7,1, Type:0, Priority:89, totalHours:14, ID:650, project:2
Hours:-1,8,-1,4,2, Type:0, Priority:26, totalHours:14, ID:651, project:2
Hours:-1,5,-1,2,3, Type:0, Priority:40, totalHours:10, ID:652, project:2
Hours:9,2,4,9,2, Type:0, Priority:8, totalHours:26, ID:653, project:2
Hours:2,9,6,-1,4, Type:0, Priority:74, totalHours:21, ID:654, project:2
Hours:6,-1,-1,-1,-1, Type:0, Priority:26, totalHours:6, ID:655, project:2
Hours:9,-1,6,1,-1, Type:0, Priority:93, totalHours:16, ID:656, project:2
Hours:6,4,-1,-1,3, Type:0, Priority:26, totalHours:13, ID:657, project:2
Hours:6,-1,9,-1,3, Type:0, Priority:69, totalHours:18, ID:658, project:2
Hours:-1,2,7,8,5, Type:0, Priority:43, totalHours:22, ID:659, project:2
Hours:9,3,9,-1,-1, Type:0, Priority:26, totalHours:21, ID:660, project:2
Hours:-1,5,-1,6,9, Type:0, Priority:85, totalHours:20, ID:661, project:2
Hours:2,9,9,-1,-1, Type:0, Priority:80, totalHours:20, ID:662, project:2
Hours:6,-1,4,6,7, Type:0, Priority:27, totalHours:23, ID:663, project:2
Hours:2,4,-1,8,1, Type:0, Priority:11, totalHours:15, ID:664, project:2
Hours:6,-1,-1,-1,8, Type:0, Priority:15, totalHours:14, ID:665, project:2
Hours:8,8,6,3,8, Type:0, Priority:30, totalHours:33, ID:666, project:2
Hours:8,9,3,7,5, Type:0, Priority:58, totalHours:32, ID:667, project:2
Hours:4,6,5,8,7, Type:0, Priority:56, totalHours:30, ID:668, project:2
Hours:-1,-1,7,-1,-1, Type:0, Priority:63, totalHours:7, ID:669, project:2
Hours:-1,-1,8,-1,-1, Type:0, Priority:75, totalHours:8, ID:670, project:2
Hours:5,8,1,2,1, Type:0, Priority:83, totalHours:17, ID:671, project:2
Hours:9,-1,-1,-1,3, Type:0, Priority:0, totalHours:12, ID:672, project:2
Hours:9,-1,-1,3,-1, Type:0, Priority:14, totalHours:12, ID:673, project:2
Hours:-1,7,5,2,8, Type:0, Priority:85, totalHours:22, ID:674, project:2
Hours:-1,-1,6,-1,6, Type:0, Priority:83, totalHours:12, ID:675, project:2
Hours:9,-1,-1,-1,9, Type:0, Priority:16, totalHours:18, ID:676, project:2
Hours:-1,2,9,-1,5, Type:0, Priority:68, totalHours:16, ID:677, project:2
Hours:5,-1,1,9,5, Type:0, Priority:41, totalHours:20, ID:678, project:2
Hours:-1,8,7,6,-1, Type:0, Priority:64, totalHours:21, ID:679, project:2
Hours:-1,-1,4,1,7, Type:0, Priority:26, totalHours:12, ID:680, project:2
Hours:2,5,5,-1,1, Type:0, Priority:37, totalHours:13, ID:681, project:2
Hours:4,3,-1,-1,6, Type:0, Priority:68, totalHours:13, ID:682, project:2
Hours:3,-1,6,1,5, Type:0, Priority:72, totalHours:15, ID:683, project:2
Hours:5,2,-1,-1,5, Type:0, Priority:76, totalHours:12, ID:684, project:2
Hours:-1,-1,-1,-1,8, Type:0, Priority:60, totalHours:8, ID:685, project:2
Hours:-1,-1,-1,8,3, Type:0, Priority:83, totalHours:11, ID:686, project:2
Hours:6,-1,-1,3,9, Type:0, Priority:5, totalHours:18, ID:687, project:2
Hours:-1,-1,2,8,1, Type:0, Priority:43, totalHours:11, ID:688, project:2
Hours:-1,6,-1,9,5, Type:0, Priority:42, totalHours:20, ID:689, project:2
Hours:-1,9,4,7,3, Type:0, Priority:10, totalHours:23, ID:690, project:2
Hours:9,-1,8,-1,8, Type:0, Priority:83, totalHours:25, ID:691, project:2
Hours:7,-1,-1,9,6, Type:0, Priority:20, totalHours:22, ID:692, project:2
Hours:9,9,-1,9,-1, Type:0, Priority:60, totalHours:27, ID:693, project:2
Hours:5,-1,-1,7,8, Type:0, Priority:85, totalHours:20, ID:694, project:2
Hours:5,-1,-1,-1,-1, Type:0, Priority:60, totalHours:5, ID:695, project:2
Hours:1,-1,-1,7,4, Type:0, Priority:34, totalHours:12, ID:696, project:2
Hours:5,-1,9,-1,2, Type:0, Priority:40, totalHours:16, ID:697, project:2
Hours:2,-1,7,-1,3, Type:0, Priority:89, totalHours:12, ID:698, project:2
Hours:-1,4,-1,5,5, Type:0, Priority:3, totalHours:14, ID:699, project:2
Hours:8,-1,9,-1,9, Type:0, Priority:85, totalHours:26, ID:700, project:2
Hours:-1,-1,9,3,-1, Type:0, Priority:71, totalHours:12, ID:701, project:3
Hours:3,9,5,-1,5, Type:0, Priority:58, totalHours:22, ID:702, project:3
Hours:1,2,-1,-1,6, Type:0, Priority:57, totalHours:9, ID:703, project:3
Hours:-1,5,6,-1,3, Type:0, Priority:13, totalHours:14, ID:704, project:3
Hours:9,5,-1,-1,-1, Type:0, Priority:96, totalHours:14, ID:705, project:3
Hours:-1,-1,6,6,9, Type:0, Priority:78, totalHours:21, ID:706, project:3
Hours:1,-1,6,5,9, Type:0, Priority:41, totalHours:21, ID:707, project:3
Hours:-1,-1,-1,1,-1, Type:0, Priority:9, totalHours:1, ID:708, project:3
Hours:9,5,6,8,7, Type:0, Priority:77, totalHours:35, ID:709, project:3
Hours:-1,6,4,-1,7, Type:0, Priority:69, totalHours:17, ID:710, project:3
Hours:-1,-1,3,4,8, Type:0, Priority:9, totalHours:15, ID:711, project:3
Hours:3,-1,5,-1,1, Type:0, Priority:19, totalHours:9, ID:712, project:3
Hours:-1,1,8,5,-1, Type:0, Priority:55, totalHours:14, ID:713, project:3
Hours:-1,4,1,7,9, Type:0, Priority:46, totalHours:21, ID:714, project:3
Hours:7,-1,9,1,3, Type:0, Priority:4, totalHours:20, ID:715, project:3
Hours:8,9,7,2,2, Type:0, Priority:14, totalHours:28, ID:716, project:3
Hours:8,8,9,6,8, Type:0, Priority:78, totalHours:39, ID:717, project:3
Hours:3,9,8,-1,8, Type:0, Priority:80, totalHours:28, ID:718, project:3
Hours:8,5,-1,-1,-1, Type:0, Priority:72, totalHours:13, ID:719, project:3
Hours:3,2,1,1,1, Type:0, Priority:80, totalHours:8, ID:720, project:3
Hours:5,-1,3,2,8, Type:0, Priority:25, totalHours:18, ID:721, project:3
Hours:9,4,-1,6,6, Type:0, Priority:74, totalHours:25, ID:722, project:3
Hours:-1,-1,3,3,8, Type:0, Priority:33, totalHours:14, ID:723, project:3
Hours:4,-1,2,3,3, Type:0, Priority:3, totalHours:12, ID:724, project:3
Hours:3,2,4,2,-1, Type:0, Priority:17, totalHours:11, ID:725, project:3
Hours:5,5,3,-1,9, Type:0, Priority:38, totalHours:22, ID:726, project:3
Hours:7,1,1,9,4, Type:0, Priority:0, totalHours:22, ID:727, project:3
Hours:-1,-1,7,6,5, Type:0, Priority:77, totalHours:18, ID:728, project:3
Hours:1,-1,-1,-1,9, Type:0, Priority:4, totalHours:10, ID:729, project:3
Hours:-1,-1,8,-1,8, Type:0, Priority:51, totalHours:16, ID:730, project:3
Hours:8,4,1,4,7, Type:0, Priority:48, totalHours:24, ID:731, project:3
Hours:2,-1,2,4,2, Type:0, Priority:4, totalHours:10, ID:732, project:3
Hours:4,7,-1,-1,2, Type:0, Priority:83, totalHours:13, ID:733, project:3
Hours:-1,-1,-1,-1,4, Type:0, Priority:7, totalHours:4, ID:734, project:3
Hours:-1,5,3,7,5, Type:0, Priority:79, totalHours:20, ID:735, project:3
Hours:8,-1,-1,1,8, Type:0, Priority:62, totalHours:17, ID:736, project:3
Hours:8,8,1,9,-1, Type:0, Priority:83, totalHours:26, ID:737, project:3
Hours:6,7,3,7,1, Type:0, Priority:53, totalHours:24, ID:738, project:3
Hours:-1,7,2,6,6, Type:0, Priority:72, totalHours:21, ID:739, project:3
Hours:2,7,1,4,-1, Type:0, Priority:35, totalHours:14, ID:740, project:3
Hours:8,9,6,-1,-1, Type:0, Priority:19, totalHours:23, ID:741, project:3
Hours:3,-1,-1,1,-1, Type:0, Priority:90, totalHours:4, ID:742, project:3
Hours:-1,-1,6,3,9, Type:0, Priority:95, totalHours:18, ID:743, project:3
Hours:1,8,2,1,2, Type:0, Priority:9, totalHours:14, ID:744, project:3
Hours:3,4,2,2,-1, Type:0, Priority:29, totalHours:11, ID:745, project:3
Hours:5,7,-1,7,3, Type:0, Priority:35, totalHours:22, ID:746, project:3
Hours:1,8,7,-1,5, Type:0, Priority:16, totalHours:21, ID:747, project:3
Hours:1,-1,2,5,9, Type:0, Priority:77, totalHours:17, ID:748, project:3
Hours:6,9,-1,3,4, Type:0, Priority:3, totalHours:22, ID:749, project:3
Hours:-1,1,2,-1,-1, Type:0, Priority:29, totalHours:3, ID:750, project:3
Hours:-1,7,-1,3,-1, Type:0, Priority:32, totalHours:10, ID:751, project:3
Hours:-1,6,-1,5,-1, Type:0, Priority:26, totalHours:11, ID:752, project:3
Hours:3,-1,8,-1,4, Type:0, Priority:90, totalHours:15, ID:753, project:3
Hours:-1,2,7,-1,-1, Type:0, Priority:4, totalHours:9, ID:754, project:3
Hours:-1,-1,9,7,6, Type:0, Priority:96, totalHours:22, ID:755, project:3
Hours:-1,6,9,-1,-1, Type:0, Priority:37, totalHours:15, ID:756, project:3
Hours:4,9,3,3,-1, Type:0, Priority:76, totalHours:19, ID:757, project:3
Hours:-1,-1,8,-1,1, Type:0, Priority:88, totalHours:9, ID:758, project:3
Hours:8,6,8,4,-1, Type:0, Priority:65, totalHours:26, ID:759, project:3
Hours:7,2,9,4,3, Type:0, Priority:67, totalHours:25, ID:760, project:3
Hours:8,2,3,3,1, Type:0, Priority:67, totalHours:17, ID:761, project:3
Hours:-1,6,-1,1,8, Type:0, Priority:23, totalHours:15, ID:762, project:3
Hours:-1,3,-1,9,7, Type:0, Priority:51, totalHours:19, ID:763, project:3
Hours:-1,4,6,-1,-1, Type:0, Priority:37, totalHours:10, ID:764, project:3
Hours:8,9,-1,-1,2, Type:0, Priority:32, totalHours:19, ID:765, project:3
Hours:-1,-1,5,-1,-1, Type:0, Priority:15, totalHours:5, ID:766, project:3
Hours:8,4,9,-1,1, Type:0, Priority:80, totalHours:22, ID:767, project:3
Hours:-1,1,7,-1,-1, Type:0, Priority:82, totalHours:8, ID:768, project:3
Hours:-1,3,1,5,-1, Type:0, Priority:77, totalHours:9, ID:769, project:3
Hours:-1,3,9,7,9, Type:0, Priority:57, totalHours:28, ID:770, project:3
Hours:8,9,5,-1,2, Type:0, Priority:24, totalHours:24, ID:771, project:3
Hours:-1,5,5,7,5, Type:0, Priority:13, totalHours:22, ID:772, project:3
Hours:3,-1,-1,-1,8, Type:0, Priority:68, totalHours:11, ID:773, project:3
Hours:7,8,-1,5,4, Type:0, Priority:64, totalHours:24, ID:774, project:3
Hours:5,4,-1,-1,8, Type:0, Priority:93, totalHours:17, ID:775, project:3
Hours:1,-1,-1,3,-1, Type:0, Priority:46, totalHours:4, ID:776, project:3
Hours:6,3,-1,-1,5, Type:0, Priority:75, totalHours:14, ID:777, project:3
Hours:-1,-1,-1,9,6, Type:0, Priority:72, totalHours:15, ID:778, project:3
Hours:9,1,-1,5,1, Type:0, Priority:27, totalHours:16, ID:779, project:3
Hours:-1,4,-1,7,2, Type:0, Priority:45, totalHours:13, ID:780, project:3
Hours:1,-1,8,8,-1, Type:0, Priority:7, totalHours:17, ID:781, project:3
Hours:6,4,3,7,6, Type:0, Priority:44, totalHours:26, ID:782, project:3
Hours:-1,-1,-1,-1,-1, Type:0, Priority:4, totalHours:0, ID:783, project:3
Hours:-1,-1,5,-1,3, Type:0, Priority:67, totalHours:8, ID:784, project:3
Hours:2,4,-1,8,-1, Type:0, Priority:30, totalHours:14, ID:785, project:3
Hours:-1,-1,-1,-1,-1, Type:0, Priority:21, totalHours:0, ID:786, project:3
Hours:9,5,-1,-1,-1, Type:0, Priority:39, totalHours:14, ID:787, project:3
Hours:6,8,8,6,2, Type:0, Priority:9, totalHours:30, ID:788, project:3
Hours:1,-1,4,3,6, Type:0, Priority:67, totalHours:14, ID:789, project:3
Hours:3,8,-1,-1,-1, Type:0, Priority:53, totalHours:11, ID:790, project:3
Hours:6,-1,-1,6,8, Type:0, Priority:56, totalHours:20, ID:791, project:3
Hours:-1,4,1,5,-1, Type:0, Priority:21, totalHours:10, ID:792, project:3
Hours:5,1,-1,2,5, Type:0, Priority:99, totalHours:13, ID:793, project:3
Hours:1,2,7,5,5, Type:0, Priority:35, totalHours:20, ID:794, project:3
Hours:9,-1,-1,-1,-1, Type:0, Priority:8, totalHours:9, ID:795, project:3
Hours:9,7,-1,-1,-1, Type:0, Priority:22, totalHours:16, ID:796, project:3
Hours:-1,2,4,-1,-1, Type:0, Priority:49, totalHours:6, ID:797, project:3
Hours:8,-1,3,-1,-1, Type:0, Priority:5, totalHours:11, ID:798, project:3
Hours:-1,-1,6,5,9, Type:0, Priority:92, totalHours:20, ID:799, project:3
Hours:-1,4,-1,-1,3, Type:0, Priority:27, totalHours:7, ID:800, project:3
Hours:-1,8,7,-1,5, Type:0, Priority:33, totalHours:20, ID:801, project:3
Hours:5,1,4,2,-1, Type:0, Priority:86, totalHours:12, ID:802, project:3
Hours:-1,-1,-1,4,-1, Type:0, Priority:63, totalHours:4, ID:803, project:3
Hours:9,9,-1,5,4, Type:0, Priority:84, totalHours:27, ID:804, project:3
Hours:-1,4,-1,-1,7, Type:0, Priority:28, totalHours:11, ID:805, project:3
Hours:1,2,-1,6,7, Type:0, Priority:78, totalHours:16, ID:806, project:3
Hours:4,2,2,2,-1, Type:0, Priority:13, totalHours:10, ID:807, project:3
Hours:-1,-1,5,5,-1, Type:0, Priority:40, totalHours:10, ID:808, project:3
Hours:3,1,5,1,6, Type:0, Priority:62, totalHours:16, ID:809, project:3
Hours:6,7,6,4,6, Type:0, Priority:52, totalHours:29, ID:810, project:3
Hours:4,9,8,2,2, Type:0, Priority:79, totalHours:25, ID:811, project:3
Hours:-1,5,-1,5,6, Type:0, Priority:88, totalHours:16, ID:812, project:3
Hours:-1,-1,7,5,7, Type:0, Priority:58, totalHours:19, ID:813, project:3
Hours:5,2,1,-1,2, Type:0, Priority:62, totalHours:10, ID:814, project:3
Hours:3,7,2,4,6, Type:0, Priority:66, totalHours:22, ID:815, project:3
Hours:5,5,-1,-1,-1, Type:0, Priority:75, totalHours:10, ID:816, project:3
Hours:-1,-1,1,-1,9, Type:0, Priority:87, totalHours:10, ID:817, project:3
Hours:-1,9,-1,9,-1, Type:0, Priority:31, totalHours:18, ID:818, project:3
Hours:9,7,2,-1,5, Type:0, Priority:48, totalHours:23, ID:819, project:3
Hours:6,9,-1,-1,6, Type:0, Priority:43, totalHours:21, ID:820, project:3
Hours:-1,-1,-1,-1,1, Type:0, Priority:73, totalHours:1, ID:821, project:3
Hours:6,-1,7,-1,3, Type:0, Priority:28, totalHours:16, ID:822, project:3
Hours:-1,5,7,3,-1, Type:0, Priority:57, totalHours:15, ID:823, project:3
Hours:8,4,1,8,2, Type:0, Priority:81, totalHours:23, ID:824, project:3
Hours:5,-1,8,4,9, Type:0, Priority:12, totalHours:26, ID:825, project:3
Hours:2,8,2,-1,2, Type:0, Priority:25, totalHours:14, ID:826, project:3
Hours:7,-1,-1,3,-1, Type:0, Priority:93, totalHours:10, ID:827, project:3
Hours:-1,4,2,4,6, Type:0, Priority:64, totalHours:16, ID:828, project:3
Hours:3,6,7,5,-1, Type:0, Priority:65, totalHours:21, ID:829, project:3
Hours:7,9,8,2,3, Type:0, Priority:80, totalHours:29, ID:830, project:3
Hours:9,6,1,1,-1, Type:0, Priority:6, totalHours:17, ID:831, project:3
Hours:-1,2,8,-1,2, Type:0, Priority:78, totalHours:12, ID:832, project:3
Hours:-1,6,6,-1,9, Type:0, Priority:93, totalHours:21, ID:833, project:3
Hours:9,-1,8,1,7, Type:0, Priority:66, totalHours:25, ID:834, project:3
Hours:-1,9,-1,-1,9, Type:0, Priority:11, totalHours:18, ID:835, project:3
Hours:-1,2,5,4,-1, Type:0, Priority:93, totalHours:11, ID:836, project:3
Hours:-1,9,5,8,-1, Type:0, Priority:44, totalHours:22, ID:837, project:3
Hours:-1,9,4,2,6, Type:0, Priority:5, totalHours:21, ID:838, project:3
Hours:3,-1,5,3,8, Type:0, Priority:9, totalHours:19, ID:839, project:3
Hours:8,-1,-1,7,1, Type:0, Priority:36, totalHours:16, ID:840, project:3
Hours:2,9,-1,3,-1, Type:0, Priority:36, totalHours:14, ID:841, project:3
Hours:5,5,3,1,9, Type:0, Priority:94, totalHours:23, ID:842, project:3
Hours:3,-1,6,1,8, Type:0, Priority:4, totalHours:18, ID:843, project:3
Hours:8,3,-1,-1,-1, Type:0, Priority:43, totalHours:11, ID:844, project:3
Hours:1,-1,1,5,9, Type:0, Priority:73, totalHours:16, ID:845, project:3
Hours:8,-1,2,2,5, Type:0, Priority:47, totalHours:17, ID:846, project:3
Hours:-1,7,-1,6,3, Type:0, Priority:29, totalHours:16, ID:847, project:3
Hours:8,6,-1,7,2, Type:0, Priority:15, totalHours:23, ID:848, project:3
Hours:6,-1,4,2,-1, Type:0, Priority:84, totalHours:12, ID:849, project:3
Hours:7,-1,-1,-1,-1, Type:0, Priority:33, totalHours:7, ID:850, project:3
Hours:-1,2,7,-1,-1, Type:0, Priority:11, totalHours:9, ID:851, project:3
Hours:-1,9,-1,1,1, Type:0, Priority:65, totalHours:11, ID:852, project:3
Hours:-1,7,9,-1,1, Type:0, Priority:90, totalHours:17, ID:853, project:3
Hours:7,8,1,1,8, Type:0, Priority:37, totalHours:25, ID:854, project:3
Hours:1,5,7,7,9, Type:0, Priority:14, totalHours:29, ID:855, project:3
Hours:8,-1,7,8,6, Type:0, Priority:69, totalHours:29, ID:856, project:3
Hours:4,-1,2,-1,2, Type:0, Priority:14, totalHours:8, ID:857, project:3
Hours:3,-1,5,-1,-1, Type:0, Priority:72, totalHours:8, ID:858, project:3
Hours:7,-1,5,3,6, Type:0, Priority:55, totalHours:21, ID:859, project:3
Hours:2,6,-1,5,4, Type:0, Priority:44, totalHours:17, ID:860, project:3
Hours:-1,9,8,1,4, Type:0, Priority:66, totalHours:22, ID:861, project:3
Hours:2,4,-1,-1,-1, Type:0, Priority:58, totalHours:6, ID:862, project:3
Hours:8,-1,7,-1,8, Type:0, Priority:13, totalHours:23, ID:863, project:3
Hours:6,-1,5,1,-1, Type:0, Priority:79, totalHours:12, ID:864, project:3
Hours:-1,8,-1,-1,-1, Type:0, Priority:63, totalHours:8, ID:865, project:3
Hours:-1,-1,4,4,9, Type:0, Priority:57, totalHours:17, ID:866, project:3
Hours:-1,9,2,7,3, Type:0, Priority:73, totalHours:21, ID:867, project:3
Hours:-1,-1,-1,-1,-1, Type:0, Priority:17, totalHours:0, ID:868, project:3
Hours:2,4,-1,-1,1, Type:0, Priority:95, totalHours:7, ID:869, project:3
Hours:4,1,6,-1,4, Type:0, Priority:60, totalHours:15, ID:870, project:3
Hours:-1,-1,-1,6,6, Type:0, Priority:4, totalHours:12, ID:871, project:3
Hours:5,6,-1,1,-1, Type:0, Priority:52, totalHours:12, ID:872, project:3
Hours:3,-1,2,-1,-1, Type:0, Priority:30, totalHours:5, ID:873, project:3
Hours:1,-1,-1,1,8, Type:0, Priority:86, totalHours:10, ID:874, project:3
Hours:2,-1,-1,8,1, Type:0, Priority:0, totalHours:11, ID:875, project:3
Hours:-1,-1,7,-1,9, Type:0, Priority:11, totalHours:16, ID:876, project:3
Hours:8,6,-1,-1,-1, Type:0, Priority:27, totalHours:14, ID:877, project:3
Hours:6,5,9,3,7, Type:0, Priority:7, totalHours:30, ID:878, project:3
Hours:3,-1,3,-1,-1, Type:0, Priority:98, totalHours:6, ID:879, project:3
Hours:2,-1,1,-1,-1, Type:0, Priority:79, totalHours:3, ID:880, project:3
Hours:5,-1,1,5,5, Type:0, Priority:2, totalHours:16, ID:881, project:3
Hours:5,-1,-1,8,-1, Type:0, Priority:9, totalHours:13, ID:882, project:3
Hours:-1,9,7,4,8, Type:0, Priority:83, totalHours:28, ID:883, project:3
Hours:6,-1,-1,4,1, Type:0, Priority:26, totalHours:11, ID:884, project:3
Hours:3,-1,-1,5,2, Type:0, Priority:34, totalHours:10, ID:885, project:3
Hours:6,4,-1,-1,-1, Type:0, Priority:45, totalHours:10, ID:886, project:3
Hours:8,6,-1,-1,-1, Type:0, Priority:41, totalHours:14, ID:887, project:3
Hours:7,7,-1,4,-1, Type:0, Priority:89, totalHours:18, ID:888, project:3
Hours:-1,-1,6,5,2, Type:0, Priority:19, totalHours:13, ID:889, project:3
Hours:-1,7,-1,-1,8, Type:0, Priority:51, totalHours:15, ID:890, project:3
Hours:4,-1,-1,-1,4, Type:0, Priority:56, totalHours:8, ID:891, project:3
Hours:9,-1,7,4,1, Type:0, Priority:51, totalHours:21, ID:892, project:3
Hours:4,8,9,2,8, Type:0, Priority:38, totalHours:31, ID:893, project:3
Hours:-1,-1,-1,-1,4, Type:0, Priority:68, totalHours:4, ID:894, project:3
Hours:5,-1,2,7,-1, Type:0, Priority:14, totalHours:14, ID:895, project:3
Hours:-1,9,-1,3,5, Type:0, Priority:51, totalHours:17, ID:896, project:3
Hours:-1,6,-1,-1,5, Type:0, Priority:76, totalHours:11, ID:897, project:3
Hours:3,8,4,7,-1, Type:0, Priority:74, totalHours:22, ID:898, project:3
Hours:4,8,7,1,-1, Type:0, Priority:16, totalHours:20, ID:899, project:3
Hours:-1,-1,7,9,-1, Type:0, Priority:44, totalHours:16, ID:900, project:3
Hours:8,-1,-1,6,6, Type:0, Priority:20, totalHours:20, ID:901, project:3
Hours:-1,4,9,-1,8, Type:0, Priority:12, totalHours:21, ID:902, project:3
Hours:-1,-1,-1,-1,6, Type:0, Priority:6, totalHours:6, ID:903, project:3
Hours:3,5,9,2,-1, Type:0, Priority:52, totalHours:19, ID:904, project:3
Hours:-1,9,4,1,-1, Type:0, Priority:25, totalHours:14, ID:905, project:3
Hours:3,6,-1,9,-1, Type:0, Priority:40, totalHours:18, ID:906, project:4
Hours:6,6,2,-1,9, Type:0, Priority:39, totalHours:23, ID:907, project:4
Hours:-1,8,8,1,9, Type:0, Priority:98, totalHours:26, ID:908, project:4
Hours:1,8,-1,1,-1, Type:0, Priority:8, totalHours:10, ID:909, project:4
Hours:9,-1,9,-1,-1, Type:0, Priority:38, totalHours:18, ID:910, project:4
Hours:9,-1,9,-1,9, Type:0, Priority:9, totalHours:27, ID:911, project:4
Hours:-1,6,-1,-1,-1, Type:0, Priority:33, totalHours:6, ID:912, project:4
Hours:9,5,5,8,-1, Type:0, Priority:1, totalHours:27, ID:913, project:4
Hours:-1,5,-1,3,8, Type:0, Priority:45, totalHours:16, ID:914, project:4
Hours:-1,-1,3,2,8, Type:0, Priority:99, totalHours:13, ID:915, project:4
Hours:9,5,6,6,-1, Type:0, Priority:31, totalHours:26, ID:916, project:4
Hours:1,-1,-1,6,7, Type:0, Priority:75, totalHours:14, ID:917, project:4
Hours:5,-1,9,8,-1, Type:0, Priority:58, totalHours:22, ID:918, project:4
Hours:6,-1,4,9,4, Type:0, Priority:39, totalHours:23, ID:919, project:4
Hours:3,6,2,-1,5, Type:0, Priority:46, totalHours:16, ID:920, project:4
Hours:1,4,2,1,1, Type:0, Priority:7, totalHours:9, ID:921, project:4
Hours:7,-1,1,4,3, Type:0, Priority:84, totalHours:15, ID:922, project:4
Hours:-1,-1,-1,1,5, Type:0, Priority:81, totalHours:6, ID:923, project:4
Hours:-1,6,-1,-1,-1, Type:0, Priority:21, totalHours:6, ID:924, project:4
Hours:9,-1,1,-1,5, Type:0, Priority:94, totalHours:15, ID:925, project:4
Hours:3,1,2,-1,-1, Type:0, Priority:17, totalHours:6, ID:926, project:4
Hours:9,9,8,7,4, Type:0, Priority:3, totalHours:37, ID:927, project:4
Hours:8,9,1,9,2, Type:0, Priority:97, totalHours:29, ID:928, project:4
Hours:4,-1,2,8,6, Type:0, Priority:8, totalHours:20, ID:929, project:4
Hours:7,-1,5,-1,6, Type:0, Priority:71, totalHours:18, ID:930, project:4
Hours:4,7,5,-1,-1, Type:0, Priority:9, totalHours:16, ID:931, project:4
Hours:-1,9,2,-1,-1, Type:0, Priority:18, totalHours:11, ID:932, project:4
Hours:8,-1,8,-1,-1, Type:0, Priority:61, totalHours:16, ID:933, project:4
Hours:9,6,5,-1,6, Type:0, Priority:43, totalHours:26, ID:934, project:4
Hours:9,9,-1,-1,7, Type:0, Priority:45, totalHours:25, ID:935, project:4
Hours:-1,-1,2,9,1, Type:0, Priority:18, totalHours:12, ID:936, project:4
Hours:-1,3,5,-1,8, Type:0, Priority:45, totalHours:16, ID:937, project:4
Hours:5,2,-1,5,-1, Type:0, Priority:58, totalHours:12, ID:938, project:4
Hours:-1,7,-1,5,7, Type:0, Priority:11, totalHours:19, ID:939, project:4
Hours:1,2,7,-1,2, Type:0, Priority:88, totalHours:12, ID:940, project:4
Hours:-1,9,3,-1,-1, Type:0, Priority:17, totalHours:12, ID:941, project:4
Hours:1,8,-1,6,-1, Type:0, Priority:51, totalHours:15, ID:942, project:4
Hours:3,-1,5,-1,-1, Type:0, Priority:55, totalHours:8, ID:943, project:4
Hours:-1,6,-1,5,8, Type:0, Priority:90, totalHours:19, ID:944, project:4
Hours:1,3,1,-1,8, Type:0, Priority:83, totalHours:13, ID:945, project:4
Hours:-1,-1,6,-1,2, Type:0, Priority:55, totalHours:8, ID:946, project:4
Hours:4,1,9,7,-1, Type:0, Priority:36, totalHours:21, ID:947, project:4
Hours:-1,-1,-1,5,2, Type:0, Priority:75, totalHours:7, ID:948, project:4
Hours:3,1,7,6,-1, Type:0, Priority:59, totalHours:17, ID:949, project:4
Hours:2,1,1,5,-1, Type:0, Priority:14, totalHours:9, ID:950, project:4
Hours:-1,-1,-1,-1,-1, Type:0, Priority:80, totalHours:0, ID:951, project:5
Hours:5,-1,2,-1,-1, Type:0, Priority:67, totalHours:7, ID:952, project:5
Hours:-1,9,6,-1,-1, Type:0, Priority:49, totalHours:15, ID:953, project:5
Hours:9,-1,7,9,4, Type:0, Priority:96, totalHours:29, ID:954, project:5
Hours:6,-1,6,-1,-1, Type:0, Priority:81, totalHours:12, ID:955, project:5
Hours:-1,-1,6,5,-1, Type:0, Priority:26, totalHours:11, ID:956, project:5
Hours:1,-1,-1,8,7, Type:0, Priority:27, totalHours:16, ID:957, project:5
Hours:-1,8,-1,5,-1, Type:0, Priority:43, totalHours:13, ID:958, project:5
Hours:4,9,3,7,-1, Type:0, Priority:14, totalHours:23, ID:959, project:5
Hours:7,2,5,-1,3, Type:0, Priority:47, totalHours:17, ID:960, project:5
Hours:8,2,-1,6,2, Type:0, Priority:1, totalHours:18, ID:961, project:5
Hours:4,2,8,8,6, Type:0, Priority:38, totalHours:28, ID:962, project:5
Hours:-1,2,3,3,-1, Type:0, Priority:83, totalHours:8, ID:963, project:5
Hours:7,-1,6,-1,2, Type:0, Priority:78, totalHours:15, ID:964, project:5
Hours:-1,9,-1,2,-1, Type:0, Priority:56, totalHours:11, ID:965, project:5
Hours:3,6,-1,-1,-1, Type:0, Priority:16, totalHours:9, ID:966, project:5
Hours:-1,-1,4,5,2, Type:0, Priority:13, totalHours:11, ID:967, project:5
Hours:7,7,1,9,6, Type:0, Priority:16, totalHours:30, ID:968, project:5
Hours:1,-1,1,5,1, Type:0, Priority:21, totalHours:8, ID:969, project:5
Hours:2,4,-1,8,8, Type:0, Priority:28, totalHours:22, ID:970, project:5
Hours:5,-1,-1,4,1, Type:0, Priority:97, totalHours:10, ID:971, project:5
Hours:3,5,6,7,-1, Type:0, Priority:5, totalHours:21, ID:972, project:5
Hours:6,7,-1,3,-1, Type:0, Priority:80, totalHours:16, ID:973, project:5
Hours:-1,6,-1,1,5, Type:0, Priority:41, totalHours:12, ID:974, project:5
Hours:-1,1,3,5,-1, Type:0, Priority:71, totalHours:9, ID:975, project:5
Hours:6,-1,-1,6,8, Type:0, Priority:17, totalHours:20, ID:976, project:5
Hours:-1,4,-1,-1,4, Type:0, Priority:9, totalHours:8, ID:977, project:5
Hours:2,5,-1,5,1, Type:0, Priority:23, totalHours:13, ID:978, project:5
Hours:-1,6,3,9,1, Type:0, Priority:81, totalHours:19, ID:979, project:5
Hours:8,3,-1,-1,-1, Type:0, Priority:32, totalHours:11, ID:980, project:5
Hours:9,5,-1,9,-1, Type:0, Priority:15, totalHours:23, ID:981, project:5
Hours:7,9,8,-1,-1, Type:0, Priority:64, totalHours:24, ID:982, project:5
Hours:7,4,7,8,-1, Type:0, Priority:61, totalHours:26, ID:983, project:5
Hours:6,3,3,3,4, Type:0, Priority:40, totalHours:19, ID:984, project:5
Hours:6,-1,6,-1,1, Type:0, Priority:18, totalHours:13, ID:985, project:5
Hours:3,-1,6,1,-1, Type:0, Priority:23, totalHours:10, ID:986, project:5
Hours:-1,-1,-1,-1,6, Type:0, Priority:53, totalHours:6, ID:987, project:5
Hours:1,-1,4,6,-1, Type:0, Priority:20, totalHours:11, ID:988, project:5
Hours:-1,5,-1,8,4, Type:0, Priority:66, totalHours:17, ID:989, project:5
Hours:8,-1,4,2,8, Type:0, Priority:47, totalHours:22, ID:990, project:5
Hours:-1,-1,-1,2,5, Type:0, Priority:80, totalHours:7, ID:991, project:5
Hours:1,-1,6,2,2, Type:0, Priority:46, totalHours:11, ID:992, project:5
Hours:-1,4,-1,6,3, Type:0, Priority:13, totalHours:13, ID:993, project:5
Hours:5,5,7,2,4, Type:0, Priority:25, totalHours:23, ID:994, project:5
Hours:7,7,8,3,7, Type:0, Priority:25, totalHours:32, ID:995, project:5
Hours:-1,1,8,9,-1, Type:0, Priority:31, totalHours:18, ID:996, project:5
Hours:2,-1,8,-1,1, Type:0, Priority:36, totalHours:11, ID:997, project:5
Hours:4,-1,6,3,-1, Type:0, Priority:26, totalHours:13, ID:998, project:5
Hours:2,-1,5,9,2, Type:0, Priority:50, totalHours:18, ID:999, project:5
Hours:1,9,8,9,5, Type:0, Priority:14, totalHours:32, ID:1000, project:5
Hours:6,7,-1,9,-1, Type:0, Priority:43, totalHours:22, ID:1001, project:5
Hours:5,-1,-1,1,-1, Type:0, Priority:58, totalHours:6, ID:1002, project:5
Hours:-1,3,1,6,1, Type:0, Priority:4, totalHours:11, ID:1003, project:5
Hours:1,6,6,4,-1, Type:0, Priority:5, totalHours:17, ID:1004, project:5