Starting the CPU simulation
Elapsed time on CPU = 117
Elapsed time on CPU = 30751
Elapsed time on CPU = 136479
Elapsed time on CPU = 342627
Elapsed time on CPU = 545505
Elapsed time on CPU = 817079
Elapsed time on CPU = 1162777
Elapsed time on CPU = 1612101
Elapsed time on CPU = 2129748
Elapsed time on CPU = 2649444
Elapsed time on CPU = 3226340
End of the CPU simulation
